<svg xmlns="http://www.w3.org/2000/svg" xmlns:xlink="http://www.w3.org/1999/xlink" width="11.134" height="13.574" viewBox="0 0 11.134 13.574">
  <defs>
    <clipPath id="clip-path">
      <rect width="11.134" height="13.574" fill="none"/>
    </clipPath>
  </defs>
  <g id="Komponente_2_1" data-name="Komponente 2 – 1" clip-path="url(#clip-path)">
    <g id="icon-2" transform="translate(0.23 1.579)">
      <path id="Pfad_2340" data-name="Pfad 2340" d="M10.933.046,5.745,1.633A1.629,1.629,0,0,0,4.607,3.1V8.569a1.828,1.828,0,0,0-1.213-.135,2.439,2.439,0,0,0-2.227,2.108c0,.99,1,1.6,2.227,1.422A2.309,2.309,0,0,0,5.526,9.886V5.213c0-.439.528-.627.528-.627l4.587-1.438s.508-.17.508.3V7.2a2.237,2.237,0,0,0-1.3-.167A2.376,2.376,0,0,0,7.617,9.1c0,.99,1,1.617,2.227,1.468A2.376,2.376,0,0,0,12.071,8.5V.859A.83.83,0,0,0,10.933.046Z" transform="translate(-1.167 0)" fill="#fff"/>
    </g>
    <line id="Linie_5351" data-name="Linie 5351" y2="4.511" transform="translate(2.296)" fill="none" stroke="#fff" stroke-width="1"/>
    <line id="Linie_5352" data-name="Linie 5352" x2="4.592" transform="translate(0 2.256)" fill="none" stroke="#fff" stroke-width="1"/>
  </g>
</svg>
