<svg xmlns="http://www.w3.org/2000/svg" width="17.668" height="15" viewBox="0 0 17.668 15">
  <path id="ic_add_a_photo_24px" d="M2.3,3.143V1H3.841V3.143h2.3V4.571h-2.3V6.714H2.3V4.571H0V3.143Zm2.3,4.286V5.286h2.3V3.143h5.377L13.7,4.571h2.435A1.49,1.49,0,0,1,17.668,6v8.571A1.49,1.49,0,0,1,16.132,16H3.841A1.49,1.49,0,0,1,2.3,14.571V7.429Zm5.377,6.429a3.715,3.715,0,0,0,3.841-3.571A3.715,3.715,0,0,0,9.986,6.714a3.715,3.715,0,0,0-3.841,3.571A3.715,3.715,0,0,0,9.986,13.857ZM7.528,10.286a2.374,2.374,0,0,0,2.458,2.286,2.374,2.374,0,0,0,2.458-2.286A2.374,2.374,0,0,0,9.986,8a2.374,2.374,0,0,0-2.458,2.286Z" transform="translate(0 -1)"/>
</svg>
