<svg xmlns="http://www.w3.org/2000/svg" xmlns:xlink="http://www.w3.org/1999/xlink" width="23.614" height="14" viewBox="0 0 23.614 14">
  <defs>
    <clipPath id="clip-path">
      <rect id="Rechteck_10253" data-name="Rechteck 10253" width="23.614" height="14" transform="translate(10192 19343)" fill="#fff" stroke="#707070" stroke-width="1"/>
    </clipPath>
  </defs>
  <g id="Gruppe_maskieren_25" data-name="Gruppe maskieren 25" transform="translate(-10192 -19343)" clip-path="url(#clip-path)">
    <g id="iconmonstr-soundcloud-1" transform="translate(10192.181 19344.119)">
      <path id="iconmonstr-soundcloud-1-2" data-name="iconmonstr-soundcloud-1" d="M6.835,18.755H5.858V10.877a4,4,0,0,1,.977-.553Zm2.929,0h.977V9.749a5.444,5.444,0,0,0-.606.837l-.37-.18Zm-1.953,0h.977V10.116a2.76,2.76,0,0,0-.977-.01Zm-3.905,0h.977V11.9a4.579,4.579,0,0,0-.676,1.5l-.3-.178ZM.977,13.629a3,3,0,0,0,0,4.429Zm18.431-.655a5.165,5.165,0,0,0-5-4.959,4.732,4.732,0,0,0-2.7.856v9.882h8.874a2.944,2.944,0,0,0,2.842-3.032,2.854,2.854,0,0,0-4.024-2.75ZM2.93,12.948a2.132,2.132,0,0,0-.977.119v5.554a2.552,2.552,0,0,0,.977.135Z" transform="translate(-0.001 -8.015)"/>
    </g>
  </g>
</svg>
