<svg xmlns="http://www.w3.org/2000/svg" width="11" height="22" viewBox="0 0 11 22">
  <text id="T" transform="translate(0 18)" font-size="18" font-family="HelveticaNeue-Bold, Helvetica Neue" font-weight="700" letter-spacing="0.05em"><tspan x="0" y="0">T</tspan></text>
</svg>
