<svg xmlns="http://www.w3.org/2000/svg" xmlns:xlink="http://www.w3.org/1999/xlink" width="69" height="319" viewBox="0 0 69 319">
  <defs>
    <filter id="Rechteck_10158" x="0" y="0" width="69" height="319" filterUnits="userSpaceOnUse">
      <feOffset dy="3" input="SourceAlpha"/>
      <feGaussianBlur stdDeviation="3" result="blur"/>
      <feFlood flood-opacity="0.325"/>
      <feComposite operator="in" in2="blur"/>
      <feComposite in="SourceGraphic"/>
    </filter>
  </defs>
  <g id="phone_top" transform="translate(100.5 -194) rotate(90)">
    <g transform="matrix(0, -1, 1, 0, 194, 100.5)" filter="url(#Rechteck_10158)">
      <path id="Rechteck_10158-2" data-name="Rechteck 10158" d="M30,0H271a30,30,0,0,1,30,30V51H0V30A30,30,0,0,1,30,0Z" transform="translate(60 6) rotate(90)" fill="#1c1c1c"/>
    </g>
    <rect id="Rechteck_10159" data-name="Rechteck 10159" width="70.856" height="8" rx="4" transform="translate(316.074 63.988)" fill="#3b3b3b"/>
  </g>
</svg>
