<svg xmlns="http://www.w3.org/2000/svg" xmlns:xlink="http://www.w3.org/1999/xlink" width="319" height="655" viewBox="0 0 319 655">
  <defs>
    <filter id="Rechteck_9560" x="0" y="0" width="319" height="655" filterUnits="userSpaceOnUse">
      <feOffset dy="3" input="SourceAlpha"/>
      <feGaussianBlur stdDeviation="3" result="blur"/>
      <feFlood flood-opacity="0.325"/>
      <feComposite operator="in" in2="blur"/>
      <feComposite in="SourceGraphic"/>
    </filter>
  </defs>
  <g id="Symbol_9_1" data-name="Symbol 9 – 1" transform="translate(-836 -34.5)">
    <g transform="matrix(1, 0, 0, 1, 836, 34.5)" filter="url(#Rechteck_9560)">
      <rect id="Rechteck_9560-2" data-name="Rechteck 9560" width="301" height="637" rx="30" transform="translate(9 6)" fill="#1c1c1c"/>
    </g>
    <circle id="Ellipse_2511" data-name="Ellipse 2511" cx="17" cy="17" r="17" transform="translate(979.542 634.633)" fill="#3b3b3b"/>
    <rect id="Rechteck_9561" data-name="Rechteck 9561" width="70.856" height="8" rx="4" transform="translate(961.074 63.988)" fill="#3b3b3b"/>
  </g>
</svg>
