<svg xmlns="http://www.w3.org/2000/svg" width="84.142" height="14.249" viewBox="0 0 84.142 14.249">
  <defs>
    <style>
      .cls-1, .cls-2 {
        fill: #fff;
      }

      .cls-2 {
        font-size: 12px;
        font-family: Helvetica-Bold, Helvetica;
        font-weight: 700;
      }

      .cls-3 {
        letter-spacing: -0.008em;
      }
    </style>
  </defs>
  <g id="Symbol_3_2" data-name="Symbol 3 – 2" transform="translate(-1245.303 -19.359)">
    <path id="Pfad_1934" data-name="Pfad 1934" class="cls-1" d="M809.88,3846.286v-4.1c0-.22.1-.317.317-.317h2.046a.269.269,0,0,1,.3.3q0,2.006,0,4.012v.1h.094c.273,0,.546,0,.818,0a.264.264,0,0,1,.274.141.29.29,0,0,1-.054.327l-1.088,1.307c-.385.462-.774.921-1.152,1.389a.27.27,0,0,1-.449,0c-.727-.884-1.462-1.761-2.194-2.641a.828.828,0,0,1-.087-.115.262.262,0,0,1,.231-.406c.281,0,.562,0,.843,0Z" transform="translate(436.641 -3822.508)"/>
    <path id="Pfad_1936" data-name="Pfad 1936" class="cls-1" d="M821.266,3860.31a.194.194,0,0,0-.2-.152h-1.408v-.036q0-.73,0-1.46a.718.718,0,0,0-.019-.145.171.171,0,0,0-.079-.111.426.426,0,0,0-.232-.071h-4.243l-.509.613h4.474v1.21h-3.561a.241.241,0,0,0-.187.08q-.5.525-1,1.048a.056.056,0,0,1-.047.016h-2.442a.2.2,0,0,0-.213.151l-.813,2.268a.083.083,0,0,1-.014.027v-3.65l-.613-.735c0,.4,0,.33,0,.733,0,.01.011.027-.012.03v5.44l.011.031a.193.193,0,0,0,.17.131H819.5a.214.214,0,0,0,.222-.165q.667-2.23,1.336-4.459l.2-.675c0-.015.01-.029.014-.044v-.066Z" transform="translate(435.619 -3833.852)"/>
    <g id="Symbol_2_1" data-name="Symbol 2 – 1">
      <text id="mypressk.it" class="cls-2" transform="translate(1262.444 30.607)"><tspan class="cls-3" x="0" y="0">m</tspan><tspan y="0">ypressk.it</tspan></text>
    </g>
  </g>
</svg>
