<svg id="Komponente_3_1" data-name="Komponente 3 – 1" xmlns="http://www.w3.org/2000/svg" xmlns:xlink="http://www.w3.org/1999/xlink" width="140" height="63" viewBox="0 0 140 63">
  <defs>
    <clipPath id="clip-path">
      <rect id="Rechteck_10684" data-name="Rechteck 10684" width="39.604" height="35.203" transform="translate(1001 616)" fill="#fff" stroke="#707070" stroke-width="1"/>
    </clipPath>
  </defs>
  <g id="Gruppe_maskieren_35" data-name="Gruppe maskieren 35" transform="translate(-951 -616)" clip-path="url(#clip-path)">
    <g id="save-file-option" transform="translate(1003.201 616)">
      <path id="Pfad_2451" data-name="Pfad 2451" d="M34.745,9.717a5.329,5.329,0,0,0-1.1-1.742L27.227,1.558a5.337,5.337,0,0,0-1.742-1.1A5.29,5.29,0,0,0,23.469,0H2.2A2.122,2.122,0,0,0,.642.642,2.121,2.121,0,0,0,0,2.2V33a2.121,2.121,0,0,0,.642,1.559A2.123,2.123,0,0,0,2.2,35.2H33A2.19,2.19,0,0,0,35.2,33V11.734A5.293,5.293,0,0,0,34.745,9.717ZM14.668,3.667a.743.743,0,0,1,.733-.733h4.4a.744.744,0,0,1,.733.733V11a.744.744,0,0,1-.733.733H15.4A.743.743,0,0,1,14.668,11V3.667ZM26.4,32.27H8.8v-8.8H26.4Zm5.868,0H29.336V22.735a2.191,2.191,0,0,0-2.2-2.2H8.067a2.191,2.191,0,0,0-2.2,2.2V32.27H2.933V2.933H5.867v9.534a2.191,2.191,0,0,0,2.2,2.2h13.2a2.191,2.191,0,0,0,2.2-2.2V2.933a2.469,2.469,0,0,1,.894.229,2.47,2.47,0,0,1,.779.458l6.441,6.44a2.468,2.468,0,0,1,.458.791,2.524,2.524,0,0,1,.229.883V32.27Z" transform="translate(0)" fill="#fff"/>
    </g>
  </g>
  <text id="Diesen_Slot_überschreiben" data-name="Diesen Slot überschreiben" transform="translate(0 60)" fill="#fff" font-size="12" font-family="Lato-Bold, Lato" font-weight="700"><tspan x="0" y="0">Diesen Slot überschreiben</tspan></text>
</svg>
