<svg xmlns="http://www.w3.org/2000/svg" xmlns:xlink="http://www.w3.org/1999/xlink" width="180.716" height="10.905" viewBox="0 0 180.716 10.905">
  <defs>
    <clipPath id="clip-path">
      <rect width="180.716" height="10.905" fill="none"/>
    </clipPath>
  </defs>
  <g id="Komponente_2_1" data-name="Komponente 2 – 1" clip-path="url(#clip-path)">
    <g id="Gruppe_185" data-name="Gruppe 185">
      <g id="Rechteck_10269" data-name="Rechteck 10269" transform="translate(0 0.779)" fill="#fff" stroke="#707070" stroke-width="0.2">
        <rect width="1.947" height="10.126" stroke="none"/>
        <rect x="0.1" y="0.1" width="1.747" height="9.926" fill="none"/>
      </g>
      <g id="Rechteck_10270" data-name="Rechteck 10270" transform="translate(1.947 7.011)" fill="#fff" stroke="#707070" stroke-width="0.2">
        <rect width="1.558" height="3.895" stroke="none"/>
        <rect x="0.1" y="0.1" width="1.358" height="3.695" fill="none"/>
      </g>
      <g id="Rechteck_10271" data-name="Rechteck 10271" transform="translate(3.505 3.895)" fill="#fff" stroke="#707070" stroke-width="0.2">
        <rect width="1.947" height="7.011" stroke="none"/>
        <rect x="0.1" y="0.1" width="1.747" height="6.811" fill="none"/>
      </g>
      <g id="Rechteck_10272" data-name="Rechteck 10272" transform="translate(5.453 5.063)" fill="#fff" stroke="#707070" stroke-width="0.2">
        <rect width="1.558" height="5.842" stroke="none"/>
        <rect x="0.1" y="0.1" width="1.358" height="5.642" fill="none"/>
      </g>
      <g id="Rechteck_10273" data-name="Rechteck 10273" transform="translate(7.4 3.116)" fill="#fff" stroke="#707070" stroke-width="0.2">
        <rect width="1.947" height="7.789" stroke="none"/>
        <rect x="0.1" y="0.1" width="1.747" height="7.589" fill="none"/>
      </g>
      <g id="Rechteck_10274" data-name="Rechteck 10274" transform="translate(9.347 3.895)" fill="#fff" stroke="#707070" stroke-width="0.2">
        <rect width="1.168" height="7.011" stroke="none"/>
        <rect x="0.1" y="0.1" width="0.968" height="6.811" fill="none"/>
      </g>
      <g id="Rechteck_10275" data-name="Rechteck 10275" transform="translate(10.905 3.116)" fill="#fff" stroke="#707070" stroke-width="0.2">
        <rect width="1.947" height="7.789" stroke="none"/>
        <rect x="0.1" y="0.1" width="1.747" height="7.589" fill="none"/>
      </g>
      <g id="Rechteck_10276" data-name="Rechteck 10276" transform="translate(12.853 3.895)" fill="#fff" stroke="#707070" stroke-width="0.2">
        <rect width="1.558" height="7.011" stroke="none"/>
        <rect x="0.1" y="0.1" width="1.358" height="6.811" fill="none"/>
      </g>
      <g id="Rechteck_10277" data-name="Rechteck 10277" transform="translate(14.411 3.895)" fill="#fff" stroke="#707070" stroke-width="0.2">
        <rect width="1.947" height="7.011" stroke="none"/>
        <rect x="0.1" y="0.1" width="1.747" height="6.811" fill="none"/>
      </g>
      <g id="Rechteck_10278" data-name="Rechteck 10278" transform="translate(16.358 4.674)" fill="#fff" stroke="#707070" stroke-width="0.2">
        <rect width="1.947" height="6.232" stroke="none"/>
        <rect x="0.1" y="0.1" width="1.747" height="6.032" fill="none"/>
      </g>
      <g id="Rechteck_10279" data-name="Rechteck 10279" transform="translate(18.305 3.895)" fill="#fff" stroke="#707070" stroke-width="0.2">
        <rect width="1.558" height="7.011" stroke="none"/>
        <rect x="0.1" y="0.1" width="1.358" height="6.811" fill="none"/>
      </g>
      <g id="Rechteck_10280" data-name="Rechteck 10280" transform="translate(20.253 3.895)" fill="#fff" stroke="#707070" stroke-width="0.2">
        <rect width="1.558" height="7.011" stroke="none"/>
        <rect x="0.1" y="0.1" width="1.358" height="6.811" fill="none"/>
      </g>
      <g id="Rechteck_10281" data-name="Rechteck 10281" transform="translate(21.811 4.674)" fill="#fff" stroke="#707070" stroke-width="0.2">
        <rect width="1.558" height="6.232" stroke="none"/>
        <rect x="0.1" y="0.1" width="1.358" height="6.032" fill="none"/>
      </g>
      <g id="Rechteck_10282" data-name="Rechteck 10282" transform="translate(23.758 6.232)" fill="#fff" stroke="#707070" stroke-width="0.2">
        <rect width="1.558" height="4.674" stroke="none"/>
        <rect x="0.1" y="0.1" width="1.358" height="4.474" fill="none"/>
      </g>
      <g id="Rechteck_10283" data-name="Rechteck 10283" transform="translate(25.705 6.232)" fill="#fff" stroke="#707070" stroke-width="0.2">
        <rect width="1.558" height="4.674" stroke="none"/>
        <rect x="0.1" y="0.1" width="1.358" height="4.474" fill="none"/>
      </g>
      <g id="Rechteck_10284" data-name="Rechteck 10284" transform="translate(27.653 3.895)" fill="#fff" stroke="#707070" stroke-width="0.2">
        <rect width="1.558" height="7.011" stroke="none"/>
        <rect x="0.1" y="0.1" width="1.358" height="6.811" fill="none"/>
      </g>
      <g id="Rechteck_10285" data-name="Rechteck 10285" transform="translate(29.211 3.895)" fill="#fff" stroke="#707070" stroke-width="0.2">
        <rect width="1.558" height="7.011" stroke="none"/>
        <rect x="0.1" y="0.1" width="1.358" height="6.811" fill="none"/>
      </g>
      <g id="Rechteck_10286" data-name="Rechteck 10286" transform="translate(31.158 3.116)" fill="#fff" stroke="#707070" stroke-width="0.2">
        <rect width="1.558" height="7.789" stroke="none"/>
        <rect x="0.1" y="0.1" width="1.358" height="7.589" fill="none"/>
      </g>
      <g id="Rechteck_10287" data-name="Rechteck 10287" transform="translate(32.716 3.895)" fill="#fff" stroke="#707070" stroke-width="0.2">
        <rect width="1.558" height="7.011" stroke="none"/>
        <rect x="0.1" y="0.1" width="1.358" height="6.811" fill="none"/>
      </g>
      <g id="Rechteck_10288" data-name="Rechteck 10288" transform="translate(34.663 0)" fill="#fff" stroke="#707070" stroke-width="0.2">
        <rect width="1.558" height="10.905" stroke="none"/>
        <rect x="0.1" y="0.1" width="1.358" height="10.705" fill="none"/>
      </g>
      <g id="Rechteck_10289" data-name="Rechteck 10289" transform="translate(36.221 1.558)" fill="#fff" stroke="#707070" stroke-width="0.2">
        <rect width="1.558" height="9.347" stroke="none"/>
        <rect x="0.1" y="0.1" width="1.358" height="9.147" fill="none"/>
      </g>
      <g id="Rechteck_10290" data-name="Rechteck 10290" transform="translate(38.168 2.337)" fill="#fff" stroke="#707070" stroke-width="0.2">
        <rect width="1.947" height="8.568" stroke="none"/>
        <rect x="0.1" y="0.1" width="1.747" height="8.368" fill="none"/>
      </g>
      <g id="Rechteck_10291" data-name="Rechteck 10291" transform="translate(40.116 4.674)" fill="#fff" stroke="#707070" stroke-width="0.2">
        <rect width="1.558" height="6.232" stroke="none"/>
        <rect x="0.1" y="0.1" width="1.358" height="6.032" fill="none"/>
      </g>
      <g id="Rechteck_10292" data-name="Rechteck 10292" transform="translate(41.674 5.842)" fill="#fff" stroke="#707070" stroke-width="0.2">
        <rect width="1.947" height="5.063" stroke="none"/>
        <rect x="0.1" y="0.1" width="1.747" height="4.863" fill="none"/>
      </g>
      <g id="Rechteck_10293" data-name="Rechteck 10293" transform="translate(43.621 7.789)" fill="#fff" stroke="#707070" stroke-width="0.2">
        <rect width="1.558" height="3.116" stroke="none"/>
        <rect x="0.1" y="0.1" width="1.358" height="2.916" fill="none"/>
      </g>
    </g>
    <g id="Gruppe_186" data-name="Gruppe 186" transform="translate(45.179)">
      <g id="Rechteck_10269-2" data-name="Rechteck 10269" transform="translate(0 0.779)" fill="#fff" stroke="#707070" stroke-width="0.2">
        <rect width="1.947" height="10.126" stroke="none"/>
        <rect x="0.1" y="0.1" width="1.747" height="9.926" fill="none"/>
      </g>
      <g id="Rechteck_10270-2" data-name="Rechteck 10270" transform="translate(1.947 7.011)" fill="#fff" stroke="#707070" stroke-width="0.2">
        <rect width="1.558" height="3.895" stroke="none"/>
        <rect x="0.1" y="0.1" width="1.358" height="3.695" fill="none"/>
      </g>
      <g id="Rechteck_10271-2" data-name="Rechteck 10271" transform="translate(3.505 3.895)" fill="#fff" stroke="#707070" stroke-width="0.2">
        <rect width="1.947" height="7.011" stroke="none"/>
        <rect x="0.1" y="0.1" width="1.747" height="6.811" fill="none"/>
      </g>
      <g id="Rechteck_10272-2" data-name="Rechteck 10272" transform="translate(5.453 5.063)" fill="#fff" stroke="#707070" stroke-width="0.2">
        <rect width="1.558" height="5.842" stroke="none"/>
        <rect x="0.1" y="0.1" width="1.358" height="5.642" fill="none"/>
      </g>
      <g id="Rechteck_10273-2" data-name="Rechteck 10273" transform="translate(7.4 3.116)" fill="#fff" stroke="#707070" stroke-width="0.2">
        <rect width="1.947" height="7.789" stroke="none"/>
        <rect x="0.1" y="0.1" width="1.747" height="7.589" fill="none"/>
      </g>
      <g id="Rechteck_10274-2" data-name="Rechteck 10274" transform="translate(9.347 3.895)" fill="#fff" stroke="#707070" stroke-width="0.2">
        <rect width="1.168" height="7.011" stroke="none"/>
        <rect x="0.1" y="0.1" width="0.968" height="6.811" fill="none"/>
      </g>
      <g id="Rechteck_10275-2" data-name="Rechteck 10275" transform="translate(10.905 3.116)" fill="#fff" stroke="#707070" stroke-width="0.2">
        <rect width="1.947" height="7.789" stroke="none"/>
        <rect x="0.1" y="0.1" width="1.747" height="7.589" fill="none"/>
      </g>
      <g id="Rechteck_10276-2" data-name="Rechteck 10276" transform="translate(12.853 3.895)" fill="#fff" stroke="#707070" stroke-width="0.2">
        <rect width="1.558" height="7.011" stroke="none"/>
        <rect x="0.1" y="0.1" width="1.358" height="6.811" fill="none"/>
      </g>
      <g id="Rechteck_10277-2" data-name="Rechteck 10277" transform="translate(14.411 3.895)" fill="#fff" stroke="#707070" stroke-width="0.2">
        <rect width="1.947" height="7.011" stroke="none"/>
        <rect x="0.1" y="0.1" width="1.747" height="6.811" fill="none"/>
      </g>
      <g id="Rechteck_10278-2" data-name="Rechteck 10278" transform="translate(16.358 4.674)" fill="#fff" stroke="#707070" stroke-width="0.2">
        <rect width="1.947" height="6.232" stroke="none"/>
        <rect x="0.1" y="0.1" width="1.747" height="6.032" fill="none"/>
      </g>
      <g id="Rechteck_10279-2" data-name="Rechteck 10279" transform="translate(18.305 3.895)" fill="#fff" stroke="#707070" stroke-width="0.2">
        <rect width="1.558" height="7.011" stroke="none"/>
        <rect x="0.1" y="0.1" width="1.358" height="6.811" fill="none"/>
      </g>
      <g id="Rechteck_10280-2" data-name="Rechteck 10280" transform="translate(20.253 3.895)" fill="#fff" stroke="#707070" stroke-width="0.2">
        <rect width="1.558" height="7.011" stroke="none"/>
        <rect x="0.1" y="0.1" width="1.358" height="6.811" fill="none"/>
      </g>
      <g id="Rechteck_10281-2" data-name="Rechteck 10281" transform="translate(21.811 4.674)" fill="#fff" stroke="#707070" stroke-width="0.2">
        <rect width="1.558" height="6.232" stroke="none"/>
        <rect x="0.1" y="0.1" width="1.358" height="6.032" fill="none"/>
      </g>
      <g id="Rechteck_10282-2" data-name="Rechteck 10282" transform="translate(23.758 6.232)" fill="#fff" stroke="#707070" stroke-width="0.2">
        <rect width="1.558" height="4.674" stroke="none"/>
        <rect x="0.1" y="0.1" width="1.358" height="4.474" fill="none"/>
      </g>
      <g id="Rechteck_10283-2" data-name="Rechteck 10283" transform="translate(25.705 6.232)" fill="#fff" stroke="#707070" stroke-width="0.2">
        <rect width="1.558" height="4.674" stroke="none"/>
        <rect x="0.1" y="0.1" width="1.358" height="4.474" fill="none"/>
      </g>
      <g id="Rechteck_10284-2" data-name="Rechteck 10284" transform="translate(27.653 3.895)" fill="#fff" stroke="#707070" stroke-width="0.2">
        <rect width="1.558" height="7.011" stroke="none"/>
        <rect x="0.1" y="0.1" width="1.358" height="6.811" fill="none"/>
      </g>
      <g id="Rechteck_10285-2" data-name="Rechteck 10285" transform="translate(29.211 3.895)" fill="#fff" stroke="#707070" stroke-width="0.2">
        <rect width="1.558" height="7.011" stroke="none"/>
        <rect x="0.1" y="0.1" width="1.358" height="6.811" fill="none"/>
      </g>
      <g id="Rechteck_10286-2" data-name="Rechteck 10286" transform="translate(31.158 3.116)" fill="#fff" stroke="#707070" stroke-width="0.2">
        <rect width="1.558" height="7.789" stroke="none"/>
        <rect x="0.1" y="0.1" width="1.358" height="7.589" fill="none"/>
      </g>
      <g id="Rechteck_10287-2" data-name="Rechteck 10287" transform="translate(32.716 3.895)" fill="#fff" stroke="#707070" stroke-width="0.2">
        <rect width="1.558" height="7.011" stroke="none"/>
        <rect x="0.1" y="0.1" width="1.358" height="6.811" fill="none"/>
      </g>
      <g id="Rechteck_10288-2" data-name="Rechteck 10288" transform="translate(34.663 0)" fill="#fff" stroke="#707070" stroke-width="0.2">
        <rect width="1.558" height="10.905" stroke="none"/>
        <rect x="0.1" y="0.1" width="1.358" height="10.705" fill="none"/>
      </g>
      <g id="Rechteck_10289-2" data-name="Rechteck 10289" transform="translate(36.221 1.558)" fill="#fff" stroke="#707070" stroke-width="0.2">
        <rect width="1.558" height="9.347" stroke="none"/>
        <rect x="0.1" y="0.1" width="1.358" height="9.147" fill="none"/>
      </g>
      <g id="Rechteck_10290-2" data-name="Rechteck 10290" transform="translate(38.168 2.337)" fill="#fff" stroke="#707070" stroke-width="0.2">
        <rect width="1.947" height="8.568" stroke="none"/>
        <rect x="0.1" y="0.1" width="1.747" height="8.368" fill="none"/>
      </g>
      <g id="Rechteck_10291-2" data-name="Rechteck 10291" transform="translate(40.116 4.674)" fill="#fff" stroke="#707070" stroke-width="0.2">
        <rect width="1.558" height="6.232" stroke="none"/>
        <rect x="0.1" y="0.1" width="1.358" height="6.032" fill="none"/>
      </g>
      <g id="Rechteck_10292-2" data-name="Rechteck 10292" transform="translate(41.674 5.842)" fill="#fff" stroke="#707070" stroke-width="0.2">
        <rect width="1.947" height="5.063" stroke="none"/>
        <rect x="0.1" y="0.1" width="1.747" height="4.863" fill="none"/>
      </g>
      <g id="Rechteck_10293-2" data-name="Rechteck 10293" transform="translate(43.621 7.789)" fill="#fff" stroke="#707070" stroke-width="0.2">
        <rect width="1.558" height="3.116" stroke="none"/>
        <rect x="0.1" y="0.1" width="1.358" height="2.916" fill="none"/>
      </g>
    </g>
    <g id="Gruppe_187" data-name="Gruppe 187" transform="translate(90.358)">
      <g id="Rechteck_10269-3" data-name="Rechteck 10269" transform="translate(0 0.779)" fill="#fff" stroke="#707070" stroke-width="0.2">
        <rect width="1.947" height="10.126" stroke="none"/>
        <rect x="0.1" y="0.1" width="1.747" height="9.926" fill="none"/>
      </g>
      <g id="Rechteck_10270-3" data-name="Rechteck 10270" transform="translate(1.947 7.011)" fill="#fff" stroke="#707070" stroke-width="0.2">
        <rect width="1.558" height="3.895" stroke="none"/>
        <rect x="0.1" y="0.1" width="1.358" height="3.695" fill="none"/>
      </g>
      <g id="Rechteck_10271-3" data-name="Rechteck 10271" transform="translate(3.505 3.895)" fill="#fff" stroke="#707070" stroke-width="0.2">
        <rect width="1.947" height="7.011" stroke="none"/>
        <rect x="0.1" y="0.1" width="1.747" height="6.811" fill="none"/>
      </g>
      <g id="Rechteck_10272-3" data-name="Rechteck 10272" transform="translate(5.453 5.063)" fill="#fff" stroke="#707070" stroke-width="0.2">
        <rect width="1.558" height="5.842" stroke="none"/>
        <rect x="0.1" y="0.1" width="1.358" height="5.642" fill="none"/>
      </g>
      <g id="Rechteck_10273-3" data-name="Rechteck 10273" transform="translate(7.4 3.116)" fill="#fff" stroke="#707070" stroke-width="0.2">
        <rect width="1.947" height="7.789" stroke="none"/>
        <rect x="0.1" y="0.1" width="1.747" height="7.589" fill="none"/>
      </g>
      <g id="Rechteck_10274-3" data-name="Rechteck 10274" transform="translate(9.347 3.895)" fill="#fff" stroke="#707070" stroke-width="0.2">
        <rect width="1.168" height="7.011" stroke="none"/>
        <rect x="0.1" y="0.1" width="0.968" height="6.811" fill="none"/>
      </g>
      <g id="Rechteck_10275-3" data-name="Rechteck 10275" transform="translate(10.905 3.116)" fill="#fff" stroke="#707070" stroke-width="0.2">
        <rect width="1.947" height="7.789" stroke="none"/>
        <rect x="0.1" y="0.1" width="1.747" height="7.589" fill="none"/>
      </g>
      <g id="Rechteck_10276-3" data-name="Rechteck 10276" transform="translate(12.853 3.895)" fill="#fff" stroke="#707070" stroke-width="0.2">
        <rect width="1.558" height="7.011" stroke="none"/>
        <rect x="0.1" y="0.1" width="1.358" height="6.811" fill="none"/>
      </g>
      <g id="Rechteck_10277-3" data-name="Rechteck 10277" transform="translate(14.411 3.895)" fill="#fff" stroke="#707070" stroke-width="0.2">
        <rect width="1.947" height="7.011" stroke="none"/>
        <rect x="0.1" y="0.1" width="1.747" height="6.811" fill="none"/>
      </g>
      <g id="Rechteck_10278-3" data-name="Rechteck 10278" transform="translate(16.358 4.674)" fill="#fff" stroke="#707070" stroke-width="0.2">
        <rect width="1.947" height="6.232" stroke="none"/>
        <rect x="0.1" y="0.1" width="1.747" height="6.032" fill="none"/>
      </g>
      <g id="Rechteck_10279-3" data-name="Rechteck 10279" transform="translate(18.305 3.895)" fill="#fff" stroke="#707070" stroke-width="0.2">
        <rect width="1.558" height="7.011" stroke="none"/>
        <rect x="0.1" y="0.1" width="1.358" height="6.811" fill="none"/>
      </g>
      <g id="Rechteck_10280-3" data-name="Rechteck 10280" transform="translate(20.253 3.895)" fill="#fff" stroke="#707070" stroke-width="0.2">
        <rect width="1.558" height="7.011" stroke="none"/>
        <rect x="0.1" y="0.1" width="1.358" height="6.811" fill="none"/>
      </g>
      <g id="Rechteck_10281-3" data-name="Rechteck 10281" transform="translate(21.811 4.674)" fill="#fff" stroke="#707070" stroke-width="0.2">
        <rect width="1.558" height="6.232" stroke="none"/>
        <rect x="0.1" y="0.1" width="1.358" height="6.032" fill="none"/>
      </g>
      <g id="Rechteck_10282-3" data-name="Rechteck 10282" transform="translate(23.758 6.232)" fill="#fff" stroke="#707070" stroke-width="0.2">
        <rect width="1.558" height="4.674" stroke="none"/>
        <rect x="0.1" y="0.1" width="1.358" height="4.474" fill="none"/>
      </g>
      <g id="Rechteck_10283-3" data-name="Rechteck 10283" transform="translate(25.705 6.232)" fill="#fff" stroke="#707070" stroke-width="0.2">
        <rect width="1.558" height="4.674" stroke="none"/>
        <rect x="0.1" y="0.1" width="1.358" height="4.474" fill="none"/>
      </g>
      <g id="Rechteck_10284-3" data-name="Rechteck 10284" transform="translate(27.653 3.895)" fill="#fff" stroke="#707070" stroke-width="0.2">
        <rect width="1.558" height="7.011" stroke="none"/>
        <rect x="0.1" y="0.1" width="1.358" height="6.811" fill="none"/>
      </g>
      <g id="Rechteck_10285-3" data-name="Rechteck 10285" transform="translate(29.211 3.895)" fill="#fff" stroke="#707070" stroke-width="0.2">
        <rect width="1.558" height="7.011" stroke="none"/>
        <rect x="0.1" y="0.1" width="1.358" height="6.811" fill="none"/>
      </g>
      <g id="Rechteck_10286-3" data-name="Rechteck 10286" transform="translate(31.158 3.116)" fill="#fff" stroke="#707070" stroke-width="0.2">
        <rect width="1.558" height="7.789" stroke="none"/>
        <rect x="0.1" y="0.1" width="1.358" height="7.589" fill="none"/>
      </g>
      <g id="Rechteck_10287-3" data-name="Rechteck 10287" transform="translate(32.716 3.895)" fill="#fff" stroke="#707070" stroke-width="0.2">
        <rect width="1.558" height="7.011" stroke="none"/>
        <rect x="0.1" y="0.1" width="1.358" height="6.811" fill="none"/>
      </g>
      <g id="Rechteck_10288-3" data-name="Rechteck 10288" transform="translate(34.663 0)" fill="#fff" stroke="#707070" stroke-width="0.2">
        <rect width="1.558" height="10.905" stroke="none"/>
        <rect x="0.1" y="0.1" width="1.358" height="10.705" fill="none"/>
      </g>
      <g id="Rechteck_10289-3" data-name="Rechteck 10289" transform="translate(36.221 1.558)" fill="#fff" stroke="#707070" stroke-width="0.2">
        <rect width="1.558" height="9.347" stroke="none"/>
        <rect x="0.1" y="0.1" width="1.358" height="9.147" fill="none"/>
      </g>
      <g id="Rechteck_10290-3" data-name="Rechteck 10290" transform="translate(38.168 2.337)" fill="#fff" stroke="#707070" stroke-width="0.2">
        <rect width="1.947" height="8.568" stroke="none"/>
        <rect x="0.1" y="0.1" width="1.747" height="8.368" fill="none"/>
      </g>
      <g id="Rechteck_10291-3" data-name="Rechteck 10291" transform="translate(40.116 4.674)" fill="#fff" stroke="#707070" stroke-width="0.2">
        <rect width="1.558" height="6.232" stroke="none"/>
        <rect x="0.1" y="0.1" width="1.358" height="6.032" fill="none"/>
      </g>
      <g id="Rechteck_10292-3" data-name="Rechteck 10292" transform="translate(41.674 5.842)" fill="#fff" stroke="#707070" stroke-width="0.2">
        <rect width="1.947" height="5.063" stroke="none"/>
        <rect x="0.1" y="0.1" width="1.747" height="4.863" fill="none"/>
      </g>
      <g id="Rechteck_10293-3" data-name="Rechteck 10293" transform="translate(43.621 7.789)" fill="#fff" stroke="#707070" stroke-width="0.2">
        <rect width="1.558" height="3.116" stroke="none"/>
        <rect x="0.1" y="0.1" width="1.358" height="2.916" fill="none"/>
      </g>
    </g>
    <g id="Gruppe_188" data-name="Gruppe 188" transform="translate(135.537)">
      <g id="Rechteck_10269-4" data-name="Rechteck 10269" transform="translate(0 0.779)" fill="#fff" stroke="#707070" stroke-width="0.2">
        <rect width="1.947" height="10.126" stroke="none"/>
        <rect x="0.1" y="0.1" width="1.747" height="9.926" fill="none"/>
      </g>
      <g id="Rechteck_10270-4" data-name="Rechteck 10270" transform="translate(1.947 7.011)" fill="#fff" stroke="#707070" stroke-width="0.2">
        <rect width="1.558" height="3.895" stroke="none"/>
        <rect x="0.1" y="0.1" width="1.358" height="3.695" fill="none"/>
      </g>
      <g id="Rechteck_10271-4" data-name="Rechteck 10271" transform="translate(3.505 3.895)" fill="#fff" stroke="#707070" stroke-width="0.2">
        <rect width="1.947" height="7.011" stroke="none"/>
        <rect x="0.1" y="0.1" width="1.747" height="6.811" fill="none"/>
      </g>
      <g id="Rechteck_10272-4" data-name="Rechteck 10272" transform="translate(5.453 5.063)" fill="#fff" stroke="#707070" stroke-width="0.2">
        <rect width="1.558" height="5.842" stroke="none"/>
        <rect x="0.1" y="0.1" width="1.358" height="5.642" fill="none"/>
      </g>
      <g id="Rechteck_10273-4" data-name="Rechteck 10273" transform="translate(7.4 3.116)" fill="#fff" stroke="#707070" stroke-width="0.2">
        <rect width="1.947" height="7.789" stroke="none"/>
        <rect x="0.1" y="0.1" width="1.747" height="7.589" fill="none"/>
      </g>
      <g id="Rechteck_10274-4" data-name="Rechteck 10274" transform="translate(9.347 3.895)" fill="#fff" stroke="#707070" stroke-width="0.2">
        <rect width="1.168" height="7.011" stroke="none"/>
        <rect x="0.1" y="0.1" width="0.968" height="6.811" fill="none"/>
      </g>
      <g id="Rechteck_10275-4" data-name="Rechteck 10275" transform="translate(10.905 3.116)" fill="#fff" stroke="#707070" stroke-width="0.2">
        <rect width="1.947" height="7.789" stroke="none"/>
        <rect x="0.1" y="0.1" width="1.747" height="7.589" fill="none"/>
      </g>
      <g id="Rechteck_10276-4" data-name="Rechteck 10276" transform="translate(12.853 3.895)" fill="#fff" stroke="#707070" stroke-width="0.2">
        <rect width="1.558" height="7.011" stroke="none"/>
        <rect x="0.1" y="0.1" width="1.358" height="6.811" fill="none"/>
      </g>
      <g id="Rechteck_10277-4" data-name="Rechteck 10277" transform="translate(14.411 3.895)" fill="#fff" stroke="#707070" stroke-width="0.2">
        <rect width="1.947" height="7.011" stroke="none"/>
        <rect x="0.1" y="0.1" width="1.747" height="6.811" fill="none"/>
      </g>
      <g id="Rechteck_10278-4" data-name="Rechteck 10278" transform="translate(16.358 4.674)" fill="#fff" stroke="#707070" stroke-width="0.2">
        <rect width="1.947" height="6.232" stroke="none"/>
        <rect x="0.1" y="0.1" width="1.747" height="6.032" fill="none"/>
      </g>
      <g id="Rechteck_10279-4" data-name="Rechteck 10279" transform="translate(18.305 3.895)" fill="#fff" stroke="#707070" stroke-width="0.2">
        <rect width="1.558" height="7.011" stroke="none"/>
        <rect x="0.1" y="0.1" width="1.358" height="6.811" fill="none"/>
      </g>
      <g id="Rechteck_10280-4" data-name="Rechteck 10280" transform="translate(20.253 3.895)" fill="#fff" stroke="#707070" stroke-width="0.2">
        <rect width="1.558" height="7.011" stroke="none"/>
        <rect x="0.1" y="0.1" width="1.358" height="6.811" fill="none"/>
      </g>
      <g id="Rechteck_10281-4" data-name="Rechteck 10281" transform="translate(21.811 4.674)" fill="#fff" stroke="#707070" stroke-width="0.2">
        <rect width="1.558" height="6.232" stroke="none"/>
        <rect x="0.1" y="0.1" width="1.358" height="6.032" fill="none"/>
      </g>
      <g id="Rechteck_10282-4" data-name="Rechteck 10282" transform="translate(23.758 6.232)" fill="#fff" stroke="#707070" stroke-width="0.2">
        <rect width="1.558" height="4.674" stroke="none"/>
        <rect x="0.1" y="0.1" width="1.358" height="4.474" fill="none"/>
      </g>
      <g id="Rechteck_10283-4" data-name="Rechteck 10283" transform="translate(25.705 6.232)" fill="#fff" stroke="#707070" stroke-width="0.2">
        <rect width="1.558" height="4.674" stroke="none"/>
        <rect x="0.1" y="0.1" width="1.358" height="4.474" fill="none"/>
      </g>
      <g id="Rechteck_10284-4" data-name="Rechteck 10284" transform="translate(27.653 3.895)" fill="#fff" stroke="#707070" stroke-width="0.2">
        <rect width="1.558" height="7.011" stroke="none"/>
        <rect x="0.1" y="0.1" width="1.358" height="6.811" fill="none"/>
      </g>
      <g id="Rechteck_10285-4" data-name="Rechteck 10285" transform="translate(29.211 3.895)" fill="#fff" stroke="#707070" stroke-width="0.2">
        <rect width="1.558" height="7.011" stroke="none"/>
        <rect x="0.1" y="0.1" width="1.358" height="6.811" fill="none"/>
      </g>
      <g id="Rechteck_10286-4" data-name="Rechteck 10286" transform="translate(31.158 3.116)" fill="#fff" stroke="#707070" stroke-width="0.2">
        <rect width="1.558" height="7.789" stroke="none"/>
        <rect x="0.1" y="0.1" width="1.358" height="7.589" fill="none"/>
      </g>
      <g id="Rechteck_10287-4" data-name="Rechteck 10287" transform="translate(32.716 3.895)" fill="#fff" stroke="#707070" stroke-width="0.2">
        <rect width="1.558" height="7.011" stroke="none"/>
        <rect x="0.1" y="0.1" width="1.358" height="6.811" fill="none"/>
      </g>
      <g id="Rechteck_10288-4" data-name="Rechteck 10288" transform="translate(34.663 0)" fill="#fff" stroke="#707070" stroke-width="0.2">
        <rect width="1.558" height="10.905" stroke="none"/>
        <rect x="0.1" y="0.1" width="1.358" height="10.705" fill="none"/>
      </g>
      <g id="Rechteck_10289-4" data-name="Rechteck 10289" transform="translate(36.221 1.558)" fill="#fff" stroke="#707070" stroke-width="0.2">
        <rect width="1.558" height="9.347" stroke="none"/>
        <rect x="0.1" y="0.1" width="1.358" height="9.147" fill="none"/>
      </g>
      <g id="Rechteck_10290-4" data-name="Rechteck 10290" transform="translate(38.168 2.337)" fill="#fff" stroke="#707070" stroke-width="0.2">
        <rect width="1.947" height="8.568" stroke="none"/>
        <rect x="0.1" y="0.1" width="1.747" height="8.368" fill="none"/>
      </g>
      <g id="Rechteck_10291-4" data-name="Rechteck 10291" transform="translate(40.116 4.674)" fill="#fff" stroke="#707070" stroke-width="0.2">
        <rect width="1.558" height="6.232" stroke="none"/>
        <rect x="0.1" y="0.1" width="1.358" height="6.032" fill="none"/>
      </g>
      <g id="Rechteck_10292-4" data-name="Rechteck 10292" transform="translate(41.674 5.842)" fill="#fff" stroke="#707070" stroke-width="0.2">
        <rect width="1.947" height="5.063" stroke="none"/>
        <rect x="0.1" y="0.1" width="1.747" height="4.863" fill="none"/>
      </g>
      <g id="Rechteck_10293-4" data-name="Rechteck 10293" transform="translate(43.621 7.789)" fill="#fff" stroke="#707070" stroke-width="0.2">
        <rect width="1.558" height="3.116" stroke="none"/>
        <rect x="0.1" y="0.1" width="1.358" height="2.916" fill="none"/>
      </g>
    </g>
  </g>
</svg>
