<svg xmlns="http://www.w3.org/2000/svg" xmlns:xlink="http://www.w3.org/1999/xlink" width="86" height="16" viewBox="0 0 86 16">
  <defs>
    <clipPath id="clip-path">
      <rect width="86" height="16" fill="none"/>
    </clipPath>
  </defs>
  <g id="Komponente_2_1" data-name="Komponente 2 – 1" clip-path="url(#clip-path)">
    <text id="Weiterer_Song" data-name="Weiterer Song" transform="translate(23 12)" fill="#0d0d0d" font-size="10" font-family="Lato-Regular, Lato"><tspan x="0" y="0">Weiterer Song</tspan></text>
    <ellipse id="Ellipse_2683" data-name="Ellipse 2683" cx="7.678" cy="8" rx="7.678" ry="8" fill="#95989a"/>
    <line id="Linie_5278" data-name="Linie 5278" x2="9.033" transform="translate(3.162 8)" fill="none" stroke="#fff" stroke-width="0.5"/>
    <line id="Linie_5279" data-name="Linie 5279" y2="9.412" transform="translate(7.678 3.293)" fill="none" stroke="#fff" stroke-width="0.5"/>
  </g>
</svg>
