<svg xmlns="http://www.w3.org/2000/svg" width="23.225" height="19.718" viewBox="0 0 23.225 19.718">
  <g id="ic_add_a_photo_24px" transform="translate(-610.768 -185.709)">
    <path id="ic_add_a_photo_24px-2" data-name="ic_add_a_photo_24px" d="M3.029,3.817V1h2.02V3.817H8.078V5.695H5.049V8.512H3.029V5.695H0V3.817ZM6.059,9.45V6.634H9.088V3.817h7.068L18,5.695h3.2a1.958,1.958,0,0,1,2.02,1.878V18.84a1.958,1.958,0,0,1-2.02,1.878H5.049a1.958,1.958,0,0,1-2.02-1.878V9.45Zm7.068,8.45a4.883,4.883,0,0,0,5.049-4.695,4.883,4.883,0,0,0-5.049-4.695,4.883,4.883,0,0,0-5.049,4.695A4.883,4.883,0,0,0,13.127,17.9ZM9.9,13.206a3.121,3.121,0,0,0,3.231,3,3.121,3.121,0,0,0,3.231-3,3.121,3.121,0,0,0-3.231-3,3.121,3.121,0,0,0-3.231,3Z" transform="translate(610.768 184.709)"/>
  </g>
</svg>
