<svg id="Komponente_7_1" data-name="Komponente 7 – 1" xmlns="http://www.w3.org/2000/svg" width="7.434" height="10.997" viewBox="0 0 7.434 10.997">
  <path id="Pfad_2498" data-name="Pfad 2498" d="M5.247,8.294,6.4,9.815,1.17,13.723,6.4,17.714,5.223,19.291-1.03,14.583V12.866Z" transform="translate(1.03 -8.294)" fill="#5c5c5c"/>
</svg>
