<svg xmlns="http://www.w3.org/2000/svg" xmlns:xlink="http://www.w3.org/1999/xlink" width="12.497" height="22.165" viewBox="0 0 12.497 22.165">
  <defs>
    <clipPath id="clip-path">
      <rect width="12.497" height="22.165" fill="none"/>
    </clipPath>
  </defs>
  <g id="Komponente_2_1" data-name="Komponente 2 – 1" clip-path="url(#clip-path)">
    <line id="Linie_5327" data-name="Linie 5327" x1="10.42" y2="10" transform="translate(1.039 1.082)" fill="none" stroke="#fff" stroke-width="3" opacity="0.89"/>
    <line id="Linie_5328" data-name="Linie 5328" x1="10.42" y1="10" transform="translate(1.039 11.082)" fill="none" stroke="#fff" stroke-width="3" opacity="0.89"/>
  </g>
</svg>
