<svg xmlns="http://www.w3.org/2000/svg" width="14.154" height="7.725" viewBox="0 0 14.154 7.725">
  <g id="Komponente_3_1" data-name="Komponente 3 – 1" transform="translate(0.664 0.747)">
    <line id="Linie_5417" data-name="Linie 5417" y1="6.23" x2="7.006" fill="none" stroke="#ebebeb" stroke-width="2"/>
    <line id="Linie_5418" data-name="Linie 5418" x1="6.98" y1="6.23" transform="translate(5.843)" fill="none" stroke="#ebebeb" stroke-width="2"/>
  </g>
</svg>
