<svg xmlns="http://www.w3.org/2000/svg" width="14.154" height="7.725" viewBox="0 0 14.154 7.725">
  <g id="Komponente_4_1" data-name="Komponente 4 – 1" transform="translate(0.665 0.747)">
    <line id="Linie_5415" data-name="Linie 5415" x2="7.006" y2="6.23" fill="none" stroke="#ebebeb" stroke-width="2"/>
    <line id="Linie_5416" data-name="Linie 5416" x1="6.98" y2="6.23" transform="translate(5.843)" fill="none" stroke="#ebebeb" stroke-width="2"/>
  </g>
</svg>
