<svg xmlns="http://www.w3.org/2000/svg" width="14.155" height="7.725" viewBox="0 0 14.155 7.725">
  <g id="Komponente_6_1" data-name="Komponente 6 – 1" transform="translate(0.664 0.747)">
    <line id="Linie_5421" data-name="Linie 5421" x2="7.007" y2="6.23" fill="none" stroke="#00c9cc" stroke-width="2"/>
    <line id="Linie_5422" data-name="Linie 5422" x1="6.98" y2="6.23" transform="translate(5.844)" fill="none" stroke="#00c9cc" stroke-width="2"/>
  </g>
</svg>
