<svg xmlns="http://www.w3.org/2000/svg" width="6.605" height="9.809" viewBox="0 0 6.605 9.809">
  <g id="Symbol_3_1" data-name="Symbol 3 – 1" transform="translate(-520.2 -732.1)">
    <line id="Linie_5246" data-name="Linie 5246" x1="6.006" y2="4.504" transform="translate(520.5 732.5)" fill="none" stroke="#fff" stroke-width="1"/>
    <line id="Linie_5247" data-name="Linie 5247" x2="6.006" y2="4.504" transform="translate(520.5 737.004)" fill="none" stroke="#fff" stroke-width="1"/>
  </g>
</svg>
