<svg xmlns="http://www.w3.org/2000/svg" width="15.645" height="16" viewBox="0 0 15.645 16">
  <g id="calendar" transform="translate(-5.411)">
    <g id="Gruppe_567" data-name="Gruppe 567" transform="translate(5.411)">
      <path id="Pfad_2479" data-name="Pfad 2479" d="M119.028,258.6a.363.363,0,0,0-.363-.363H117.4a.363.363,0,0,0-.363.363v1.267a.363.363,0,0,0,.363.363h1.267a.363.363,0,0,0,.363-.363V258.6Z" transform="translate(-113.376 -249.778)" fill="#e4e4e4"/>
      <path id="Pfad_2480" data-name="Pfad 2480" d="M215.663,258.6a.363.363,0,0,0-.363-.363h-1.267a.363.363,0,0,0-.363.363v1.267a.363.363,0,0,0,.363.363H215.3a.363.363,0,0,0,.363-.363Z" transform="translate(-206.844 -249.778)" fill="#e4e4e4"/>
      <path id="Pfad_2481" data-name="Pfad 2481" d="M312.291,258.6a.363.363,0,0,0-.363-.363h-1.267a.363.363,0,0,0-.363.363v1.267a.363.363,0,0,0,.363.363h1.267a.363.363,0,0,0,.363-.363Z" transform="translate(-300.305 -249.778)" fill="#e4e4e4"/>
      <path id="Pfad_2482" data-name="Pfad 2482" d="M119.028,355.238a.363.363,0,0,0-.363-.363H117.4a.363.363,0,0,0-.363.363V356.5a.363.363,0,0,0,.363.363h1.267a.363.363,0,0,0,.363-.363v-1.267Z" transform="translate(-113.376 -343.243)" fill="#e4e4e4"/>
      <path id="Pfad_2483" data-name="Pfad 2483" d="M215.663,355.238a.363.363,0,0,0-.363-.363h-1.267a.363.363,0,0,0-.363.363V356.5a.363.363,0,0,0,.363.363H215.3a.363.363,0,0,0,.363-.363Z" transform="translate(-206.844 -343.243)" fill="#e4e4e4"/>
      <path id="Pfad_2484" data-name="Pfad 2484" d="M312.291,355.238a.363.363,0,0,0-.363-.363h-1.267a.363.363,0,0,0-.363.363V356.5a.363.363,0,0,0,.363.363h1.267a.363.363,0,0,0,.363-.363v-1.267Z" transform="translate(-300.305 -343.243)" fill="#e4e4e4"/>
      <path id="Pfad_2485" data-name="Pfad 2485" d="M19.664,54.149v1.935a1.581,1.581,0,0,1-1.584,1.58h-1a1.589,1.589,0,0,1-1.594-1.58V54.142h-4.5v1.942a1.589,1.589,0,0,1-1.594,1.58h-1A1.581,1.581,0,0,1,6.8,56.084V54.149a1.441,1.441,0,0,0-1.393,1.433V66.925a1.441,1.441,0,0,0,1.434,1.443H19.622a1.443,1.443,0,0,0,1.434-1.443V55.582A1.441,1.441,0,0,0,19.664,54.149ZM19.2,66.218a.62.62,0,0,1-.62.62H7.86a.62.62,0,0,1-.62-.62V60.359a.62.62,0,0,1,.62-.62H18.579a.62.62,0,0,1,.62.62v5.859Z" transform="translate(-5.411 -52.367)" fill="#e4e4e4"/>
      <path id="Pfad_2486" data-name="Pfad 2486" d="M80.093,4.259h.989a.543.543,0,0,0,.543-.543V.543A.543.543,0,0,0,81.082,0h-.989a.543.543,0,0,0-.543.543V3.716A.543.543,0,0,0,80.093,4.259Z" transform="translate(-77.12)" fill="#e4e4e4"/>
      <path id="Pfad_2487" data-name="Pfad 2487" d="M345,4.259h.989a.543.543,0,0,0,.543-.543V.543A.543.543,0,0,0,345.99,0H345a.543.543,0,0,0-.543.543V3.716A.543.543,0,0,0,345,4.259Z" transform="translate(-333.345)" fill="#e4e4e4"/>
    </g>
  </g>
</svg>
