<svg xmlns="http://www.w3.org/2000/svg" xmlns:xlink="http://www.w3.org/1999/xlink" width="11.902" height="13.307" viewBox="0 0 11.902 13.307">
  <defs>
    <clipPath id="clip-path">
      <rect width="11.903" height="13.307" fill="none"/>
    </clipPath>
  </defs>
  <g id="Komponente_6_1" data-name="Komponente 6 – 1" clip-path="url(#clip-path)">
    <path id="Pfad_2093" data-name="Pfad 2093" d="M0,0H5.087V2.388H0Z" transform="translate(3.249 10.919)" fill="#fff"/>
    <path id="Pfad_2092" data-name="Pfad 2092" d="M.862-1.544H-2.47L3.469-5.307,9.433-1.544H5.81V4.121H.862Z" transform="translate(2.47 5.307)" fill="#fff"/>
  </g>
</svg>
