<svg xmlns="http://www.w3.org/2000/svg" width="16.664" height="16.664" viewBox="0 0 16.664 16.664">
  <g id="Komponente_3_1" data-name="Komponente 3 – 1" transform="translate(0.354 0.354)">
    <line id="Linie_4964" data-name="Linie 4964" y1="15.957" x2="15.957" fill="none" stroke="#fff" stroke-width="1"/>
    <line id="Linie_5234" data-name="Linie 5234" x1="15.957" y1="15.957" fill="none" stroke="#fff" stroke-width="1"/>
  </g>
</svg>
