<svg xmlns="http://www.w3.org/2000/svg" width="19.431" height="17.833" viewBox="0 0 19.431 17.833">
  <g id="Symbol_3_1" data-name="Symbol 3 – 1" transform="translate(-883.569 -155)">
    <path id="Rechteck_6496" data-name="Rechteck 6496" d="M0,0H15.431a4,4,0,0,1,4,4V17.833a0,0,0,0,1,0,0H0a0,0,0,0,1,0,0V0A0,0,0,0,1,0,0Z" transform="translate(883.569 155)" fill="#6f6f6f" opacity="0.53"/>
    <line id="Linie_5204" data-name="Linie 5204" x2="8.543" y2="8.785" transform="translate(888.957 159.5)" fill="none" stroke="#fff" stroke-width="1.5"/>
    <line id="Linie_5205" data-name="Linie 5205" y1="8.785" x2="8.543" transform="translate(888.957 159.5)" fill="none" stroke="#fff" stroke-width="1.5"/>
  </g>
</svg>
