<svg xmlns="http://www.w3.org/2000/svg" width="12.522" height="8.193" viewBox="0 0 12.522 8.193">
  <g id="ic_unfold_more_24px" transform="translate(-1142.967 -2620.742)">
    <path id="ic_unfold_more_24px-2" data-name="ic_unfold_more_24px" d="M13.678,7.329,18.007,3l1.925,1.925L18.362,6.5l-4.684,4.694L7.41,4.925,9.349,3Z" transform="translate(1135.557 2617.742)"/>
  </g>
</svg>
