<svg xmlns="http://www.w3.org/2000/svg" width="8.332" height="10.386" viewBox="0 0 8.332 10.386">
  <g id="download-button" transform="translate(-1129.406 -731.086)">
    <g id="file-download" transform="translate(1129.406 731.086)">
      <path id="Pfad_2027" data-name="Pfad 2027" d="M46.582,3.666H44.2V0H40.631V3.666H38.25l4.166,4.277Zm-8.332,5.5v1.222h8.332V9.164Z" transform="translate(-38.25)" fill="#fff"/>
    </g>
  </g>
</svg>
