<svg id="Komponente_12_1" data-name="Komponente 12 – 1" xmlns="http://www.w3.org/2000/svg" width="10.997" height="7.433" viewBox="0 0 10.997 7.433">
  <path id="Pfad_2498" data-name="Pfad 2498" d="M5.247,8.294,6.4,9.815,1.17,13.723,6.4,17.714,5.223,19.291-1.03,14.583V12.866Z" transform="translate(-8.294 6.403) rotate(-90)" fill="#5c5c5c"/>
</svg>
