<svg xmlns="http://www.w3.org/2000/svg" width="20" height="20" viewBox="0 0 20 20">
  <g id="facebook-black-social-button-circle" transform="translate(-1283 -886)">
    <path id="Pfad_2328" data-name="Pfad 2328" d="M20,10A10,10,0,1,0,10,20,10,10,0,0,0,20,10ZM7.315,10V8.086H8.487V6.929c0-1.561.466-2.685,2.175-2.685H12.7V6.153H11.265c-.717,0-.88.476-.88.975v.958H12.59L12.289,10h-1.9v5.772h-1.9V10Z" transform="translate(1283 886)"/>
  </g>
</svg>
