<svg xmlns="http://www.w3.org/2000/svg" width="10" height="10" viewBox="0 0 10 10">
  <g id="Symbol_10_1" data-name="Symbol 10 – 1" transform="translate(-1119 -227)">
    <circle id="Ellipse_2712" data-name="Ellipse 2712" cx="5" cy="5" r="5" transform="translate(1119 227)" fill="#e30000"/>
    <line id="Linie_5258" data-name="Linie 5258" x1="5" y2="5" transform="translate(1121.5 229.5)" fill="none" stroke="#fff" stroke-width="1"/>
    <line id="Linie_5259" data-name="Linie 5259" x2="5" y2="5" transform="translate(1121.5 229.5)" fill="none" stroke="#fff" stroke-width="1"/>
  </g>
</svg>
