<svg xmlns="http://www.w3.org/2000/svg" width="71.772" height="71.772" viewBox="0 0 71.772 71.772">
  <g id="Symbol_6_1" data-name="Symbol 6 – 1" transform="translate(-1089 -323.228)">
    <path id="Pfad_2215" data-name="Pfad 2215" d="M7.785,39A4.785,4.785,0,1,1,3,43.785,4.79,4.79,0,0,1,7.785,39Zm0,7.177a2.392,2.392,0,1,0-2.392-2.392A2.395,2.395,0,0,0,7.785,46.177Z" transform="translate(1089.614 330.88)" fill="#fff"/>
    <path id="Pfad_2216" data-name="Pfad 2216" d="M56.2,45.177a1.2,1.2,0,0,0,1.2-1.2V39.2A1.2,1.2,0,0,0,55,39.2v4.785A1.2,1.2,0,0,0,56.2,45.177Z" transform="translate(1099.589 335.468)" fill="#fff"/>
    <path id="Pfad_2217" data-name="Pfad 2217" d="M56.2,48.589a1.2,1.2,0,0,0,1.2-1.2V46.2A1.2,1.2,0,0,0,55,46.2v1.2A1.2,1.2,0,0,0,56.2,48.589Z" transform="translate(1099.589 323.683)" fill="#fff"/>
    <path id="Pfad_2218" data-name="Pfad 2218" d="M35.2,6h1.2a1.2,1.2,0,1,1,0,2.392H35.2A1.2,1.2,0,0,1,35.2,6Z" transform="translate(1082.513 324.405)" fill="#fff"/>
    <path id="Pfad_2219" data-name="Pfad 2219" d="M52.392,6a1.2,1.2,0,0,1,0,2.392H51.2A1.2,1.2,0,1,1,51.2,6Z" transform="translate(1047.373 324.405)" fill="#fff"/>
    <path id="Pfad_2220" data-name="Pfad 2220" d="M56.392,6a1.2,1.2,0,0,1,0,2.392H55.2A1.2,1.2,0,1,1,55.2,6Z" transform="translate(1038.589 324.405)" fill="#fff"/>
    <path id="Pfad_2221" data-name="Pfad 2221" d="M39.2,6h1.2a1.2,1.2,0,1,1,0,2.392H39.2A1.2,1.2,0,1,1,39.2,6Z" transform="translate(1073.728 324.405)" fill="#fff"/>
    <path id="Pfad_2222" data-name="Pfad 2222" d="M48.392,6a1.2,1.2,0,1,1,0,2.392H47.2A1.2,1.2,0,0,1,47.2,6Z" transform="translate(1056.158 324.405)" fill="#fff"/>
    <path id="Pfad_2223" data-name="Pfad 2223" d="M43.2,6h1.2a1.2,1.2,0,0,1,0,2.392H43.2A1.2,1.2,0,1,1,43.2,6Z" transform="translate(1064.943 324.405)" fill="#fff"/>
    <path id="Pfad_2224" data-name="Pfad 2224" d="M31.2,6h1.2a1.2,1.2,0,0,1,0,2.392H31.2A1.2,1.2,0,1,1,31.2,6Z" transform="translate(1091.298 324.405)" fill="#fff"/>
    <path id="Pfad_2225" data-name="Pfad 2225" d="M71.652,30.376a5.237,5.237,0,0,0-.839-1.912,1.179,1.179,0,0,0,.959-1.148V26.128a1.2,1.2,0,1,0-2.392,0v.947c-.014-.01-.03-.016-.044-.025a5.4,5.4,0,0,0-.664-.361c-.069-.031-.136-.063-.207-.092-.053-.022-.1-.049-.154-.068a1.207,1.207,0,0,0-.129-.02,5.216,5.216,0,0,0-1.678-.3H34.517a1.166,1.166,0,0,0-2.037,0H5.269A5.276,5.276,0,0,0,0,31.479V61.61a5.276,5.276,0,0,0,5.269,5.27H66.5a5.276,5.276,0,0,0,5.27-5.269V30.881A1.175,1.175,0,0,0,71.652,30.376ZM34.092,28.6H62.2V64.488H16.747V28.6H34.092ZM2.392,61.611V31.479A2.88,2.88,0,0,1,5.269,28.6h9.085V64.488H5.269A2.88,2.88,0,0,1,2.392,61.611Zm66.988,0A2.88,2.88,0,0,1,66.5,64.488H64.6V28.6H66.5a2.848,2.848,0,0,1,1.037.2,2.865,2.865,0,0,1,1.84,2.676Z" transform="translate(1089 328.119)" fill="#fff"/>
    <path id="Pfad_2226" data-name="Pfad 2226" d="M60.392,23.341a1.2,1.2,0,0,1-2.392,0V22.153a1.2,1.2,0,0,1,2.392,0Z" transform="translate(1031 327.339)" fill="#fff"/>
    <path id="Pfad_2227" data-name="Pfad 2227" d="M60.392,15.393a1.2,1.2,0,0,1-2.392,0V14.205a1.2,1.2,0,0,1,2.392,0Z" transform="translate(1031 325.78)" fill="#fff"/>
    <path id="Pfad_2228" data-name="Pfad 2228" d="M48.088,2.392H46.9A1.2,1.2,0,0,1,46.9,0h1.189a1.2,1.2,0,1,1,0,2.392Z" transform="translate(1056.818 323.228)" fill="#fff"/>
    <path id="Pfad_2229" data-name="Pfad 2229" d="M56.008,2.392H54.819a1.171,1.171,0,0,1-1.166-1.2A1.222,1.222,0,0,1,54.879,0h1.128a1.2,1.2,0,0,1,0,2.392Z" transform="translate(1039.389 323.228)" fill="#fff"/>
    <path id="Pfad_2230" data-name="Pfad 2230" d="M52.062,2.392H50.874a1.2,1.2,0,0,1,0-2.392h1.188a1.2,1.2,0,0,1,0,2.392Z" transform="translate(1048.089 323.228)" fill="#fff"/>
    <path id="Pfad_2231" data-name="Pfad 2231" d="M59.543,3.93a1.2,1.2,0,0,1-1.108.742,1.169,1.169,0,0,1-.453-.09,1.2,1.2,0,0,1-.653-1.561A5.286,5.286,0,0,1,58.111,1.7,1.2,1.2,0,0,1,59.97,3.21,2.814,2.814,0,0,0,59.543,3.93Z" transform="translate(1032.064 323.475)" fill="#fff"/>
    <path id="Pfad_2232" data-name="Pfad 2232" d="M59.2,12.615a1.2,1.2,0,0,1-1.2-1.2V10.23a1.2,1.2,0,0,1,2.392,0v1.189A1.2,1.2,0,0,1,59.2,12.615Z" transform="translate(1031 325)" fill="#fff"/>
    <path id="Pfad_2233" data-name="Pfad 2233" d="M60.392,19.368a1.2,1.2,0,0,1-2.392,0V18.18a1.2,1.2,0,0,1,2.392,0Z" transform="translate(1031 326.56)" fill="#fff"/>
    <path id="Pfad_2234" data-name="Pfad 2234" d="M59.2,5.061a1.2,1.2,0,0,1,1.2,1.2V7.445a1.2,1.2,0,0,1-2.392,0V6.257A1.2,1.2,0,0,1,59.2,5.061Z" transform="translate(1031 324.221)" fill="#fff"/>
    <path id="Pfad_2235" data-name="Pfad 2235" d="M28.2,13.163a1.2,1.2,0,0,1-1.2-1.2V10.779a1.2,1.2,0,0,1,2.392,0v1.188A1.2,1.2,0,0,1,28.2,13.163Z" transform="translate(1099.082 325.108)" fill="#fff"/>
    <path id="Pfad_2236" data-name="Pfad 2236" d="M28.2,17.138a1.2,1.2,0,0,1-1.2-1.2V14.753a1.2,1.2,0,0,1,2.392,0v1.189A1.2,1.2,0,0,1,28.2,17.138Z" transform="translate(1099.082 325.887)" fill="#fff"/>
    <path id="Pfad_2237" data-name="Pfad 2237" d="M28.2,25.086a1.2,1.2,0,0,1-1.2-1.2V22.7a1.2,1.2,0,1,1,2.392,0V23.89A1.2,1.2,0,0,1,28.2,25.086Z" transform="translate(1099.082 327.447)" fill="#fff"/>
    <path id="Pfad_2238" data-name="Pfad 2238" d="M44.114,2.392H42.925a1.2,1.2,0,1,1,0-2.392h1.189a1.2,1.2,0,0,1,0,2.392Z" transform="translate(1065.546 323.228)" fill="#fff"/>
    <path id="Pfad_2239" data-name="Pfad 2239" d="M28.2,9.189a1.2,1.2,0,0,1-1.2-1.2V6.8a1.2,1.2,0,0,1,2.392,0V7.992A1.2,1.2,0,0,1,28.2,9.189Z" transform="translate(1099.082 324.328)" fill="#fff"/>
    <path id="Pfad_2240" data-name="Pfad 2240" d="M28.2,21.112a1.2,1.2,0,0,1-1.2-1.2V18.727a1.2,1.2,0,0,1,2.392,0v1.189A1.2,1.2,0,0,1,28.2,21.112Z" transform="translate(1099.082 326.667)" fill="#fff"/>
    <path id="Pfad_2241" data-name="Pfad 2241" d="M40.139,2.392H38.951a1.2,1.2,0,0,1,0-2.392h1.188a1.2,1.2,0,0,1,0,2.392Z" transform="translate(1074.274 323.228)" fill="#fff"/>
    <path id="Pfad_2242" data-name="Pfad 2242" d="M36.165,2.392H34.976a1.2,1.2,0,1,1,0-2.392h1.189a1.2,1.2,0,0,1,0,2.392Z" transform="translate(1083.003 323.228)" fill="#fff"/>
    <path id="Pfad_2243" data-name="Pfad 2243" d="M28.987,5.176a1.173,1.173,0,0,1-.272.03,1.2,1.2,0,0,1-1.164-.926,2.868,2.868,0,0,0-.305-.775,1.2,1.2,0,0,1,2.075-1.191,5.27,5.27,0,0,1,.561,1.427A1.2,1.2,0,0,1,28.987,5.176Z" transform="translate(1098.457 323.564)" fill="#fff"/>
    <path id="Pfad_2244" data-name="Pfad 2244" d="M32.19,2.455a1.136,1.136,0,0,1-.209-.019,3.044,3.044,0,0,0-.5-.043H31A1.2,1.2,0,1,1,31,0h.473A5.252,5.252,0,0,1,32.4.08a1.2,1.2,0,0,1-.208,2.374Z" transform="translate(1091.728 323.228)" fill="#fff"/>
    <path id="Pfad_2245" data-name="Pfad 2245" d="M24.53,25.924a1.2,1.2,0,0,1-1.2-1.2A13.174,13.174,0,0,0,10.176,11.57H7.082l5.135,5.135A1.2,1.2,0,1,1,10.526,18.4L3.35,11.22a1.184,1.184,0,0,1-.26-.39,1.2,1.2,0,0,1,0-.914,1.185,1.185,0,0,1,.26-.39l7.176-7.176a1.2,1.2,0,0,1,1.691,1.691L7.082,9.177h3.093A15.569,15.569,0,0,1,25.726,24.728,1.2,1.2,0,0,1,24.53,25.924Z" transform="translate(1131.457 323.62)" fill="#fff"/>
  </g>
</svg>
