<svg xmlns="http://www.w3.org/2000/svg" xmlns:xlink="http://www.w3.org/1999/xlink" width="16" height="18" viewBox="0 0 16 18">
  <defs>
    <clipPath id="clip-path">
      <rect id="Rechteck_10823" data-name="Rechteck 10823" width="16" height="18" transform="translate(206 381)" fill="#e30000" stroke="#707070" stroke-width="1"/>
    </clipPath>
  </defs>
  <g id="Gruppe_maskieren_47" data-name="Gruppe maskieren 47" transform="translate(-206 -381)" clip-path="url(#clip-path)">
    <g id="rubbish-bin" transform="translate(205 381)">
      <g id="Gruppe_569" data-name="Gruppe 569">
        <path id="Pfad_2495" data-name="Pfad 2495" d="M3.867,17.132A.906.906,0,0,0,4.772,18h8.457a.906.906,0,0,0,.905-.868l.6-12.749H3.263ZM10.913,7.55a.368.368,0,0,1,.368-.368h.588a.368.368,0,0,1,.368.368v7.284a.368.368,0,0,1-.368.368h-.588a.368.368,0,0,1-.368-.368Zm-2.575,0a.368.368,0,0,1,.368-.368h.588a.368.368,0,0,1,.368.368v7.284a.368.368,0,0,1-.368.368H8.706a.368.368,0,0,1-.368-.368V7.55Zm-2.575,0a.368.368,0,0,1,.368-.368h.589a.368.368,0,0,1,.368.368v7.284a.368.368,0,0,1-.368.368H6.131a.368.368,0,0,1-.368-.368Z" fill="#e30000"/>
        <path id="Pfad_2496" data-name="Pfad 2496" d="M15.139.927h-3.9V.19a.19.19,0,0,0-.19-.19h-4.1a.19.19,0,0,0-.19.19V.927h-3.9a.568.568,0,0,0-.568.568V3.282H15.708V1.5A.568.568,0,0,0,15.139.927Z" fill="#e30000"/>
      </g>
    </g>
  </g>
</svg>
