<svg xmlns="http://www.w3.org/2000/svg" xmlns:xlink="http://www.w3.org/1999/xlink" width="12" height="12" viewBox="0 0 12 12">
  <defs>
    <clipPath id="clip-path">
      <rect width="12" height="12" fill="none"/>
    </clipPath>
  </defs>
  <g id="Symbol_7_1" data-name="Symbol 7 – 1" transform="translate(-821 -675)">
    <g id="Wiederholungsraster_1" data-name="Wiederholungsraster 1" transform="translate(821 675)" clip-path="url(#clip-path)">
      <g transform="translate(-821 -675)">
        <g id="Symbol_6_2" data-name="Symbol 6 – 2">
          <line id="Linie_5253" data-name="Linie 5253" y2="12" transform="translate(827 675)" fill="none" stroke="#fff" stroke-width="1"/>
          <line id="Linie_5254" data-name="Linie 5254" x2="12" transform="translate(821 681)" fill="none" stroke="#fff" stroke-width="1"/>
        </g>
      </g>
    </g>
  </g>
</svg>
