<svg xmlns="http://www.w3.org/2000/svg" width="9" height="9" viewBox="0 0 9 9">
  <g id="Symbol_1_1" data-name="Symbol 1 – 1" transform="translate(-700.5 -1766)">
    <line id="Linie_5197" data-name="Linie 5197" y2="9" transform="translate(705 1766)" fill="none" stroke="#707070" stroke-width="1"/>
    <line id="Linie_5198" data-name="Linie 5198" x2="9" transform="translate(700.5 1770.5)" fill="none" stroke="#707070" stroke-width="1"/>
  </g>
</svg>
