<svg xmlns="http://www.w3.org/2000/svg" width="81" height="53.291" viewBox="0 0 81 53.291">
  <g id="Symbol_9_1" data-name="Symbol 9 – 1" transform="translate(-325 -306.709)">
    <path id="ic_add_a_photo_24px" d="M3.841,4.571V1H6.4V4.571h3.841V6.952H6.4v3.571H3.841V6.952H0V4.571Zm3.841,7.143V8.143h3.841V4.571h8.962l2.343,2.381h4.058a2.483,2.483,0,0,1,2.561,2.381V23.619A2.483,2.483,0,0,1,26.886,26H6.4a2.483,2.483,0,0,1-2.561-2.381v-11.9Zm8.962,10.714a6.191,6.191,0,0,0,6.4-5.952,6.191,6.191,0,0,0-6.4-5.952,6.191,6.191,0,0,0-6.4,5.952A6.191,6.191,0,0,0,16.643,22.429Zm-4.1-5.952a3.957,3.957,0,0,0,4.1,3.81,3.957,3.957,0,0,0,4.1-3.81,3.957,3.957,0,0,0-4.1-3.81,3.957,3.957,0,0,0-4.1,3.81Z" transform="translate(349.768 305.709)" opacity="0.5"/>
    <text id="Neu_hochladen" data-name="Neu hochladen" transform="translate(325 357)" fill="#2e2e2e" font-size="12" font-family="Lato-Bold, Lato" font-weight="700"><tspan x="0" y="0">Neu hochladen</tspan></text>
  </g>
</svg>
