<svg xmlns="http://www.w3.org/2000/svg" xmlns:xlink="http://www.w3.org/1999/xlink" width="15.75" height="14" viewBox="0 0 15.75 14">
  <defs>
    <clipPath id="clip-path">
      <rect id="Rechteck_10684" data-name="Rechteck 10684" width="15.75" height="14" transform="translate(1001 616)" fill="#fff" stroke="#707070" stroke-width="1"/>
    </clipPath>
  </defs>
  <g id="Gruppe_maskieren_35" data-name="Gruppe maskieren 35" transform="translate(-1001 -616)" clip-path="url(#clip-path)">
    <g id="save-file-option" transform="translate(1001.875 616)">
      <path id="Pfad_2451" data-name="Pfad 2451" d="M13.818,3.864a2.119,2.119,0,0,0-.438-.693L10.828.62a2.122,2.122,0,0,0-.693-.437A2.1,2.1,0,0,0,9.333,0H.875a.844.844,0,0,0-.62.255A.843.843,0,0,0,0,.875v12.25a.844.844,0,0,0,.255.62A.844.844,0,0,0,.875,14h12.25A.871.871,0,0,0,14,13.125V4.667A2.105,2.105,0,0,0,13.818,3.864ZM5.833,1.458a.3.3,0,0,1,.292-.292h1.75a.3.3,0,0,1,.292.292V4.375a.3.3,0,0,1-.292.292H6.125a.3.3,0,0,1-.292-.292V1.458ZM10.5,12.833h-7v-3.5h7Zm2.333,0H11.667V9.042a.871.871,0,0,0-.875-.875H3.208a.871.871,0,0,0-.875.875v3.792H1.167V1.167H2.333V4.958a.871.871,0,0,0,.875.875h5.25a.871.871,0,0,0,.875-.875V1.167a.982.982,0,0,1,.356.091A.982.982,0,0,1,10,1.44L12.56,4a.982.982,0,0,1,.182.314,1,1,0,0,1,.091.351v8.167Z" transform="translate(0)"/>
    </g>
  </g>
</svg>
