<svg xmlns="http://www.w3.org/2000/svg" width="15.36" height="15.24" viewBox="0 0 15.36 15.24">
  <g id="Komponente_1_1" data-name="Komponente 1 – 1" transform="translate(0 0)">
    <g id="Ellipse_2751" data-name="Ellipse 2751" transform="matrix(-0.996, 0.087, -0.087, -0.996, 12.712, 10.917)" fill="none" stroke="#fff" stroke-width="2.5">
      <ellipse cx="5.901" cy="5.479" rx="5.901" ry="5.479" stroke="none"/>
      <ellipse cx="5.901" cy="5.479" rx="4.651" ry="4.229" fill="none"/>
    </g>
    <g id="Pfad_2476" data-name="Pfad 2476" transform="translate(10.337 9.316)" fill="#fff">
      <path d="M 3.651675224304199 5.424471378326416 C 3.283137559890747 5.424471378326416 2.94957971572876 5.232700347900391 2.850560665130615 5.170113086700439 L -0.663174033164978 1.584452629089355 L 0.8399919271469116 0.3997108936309814 L 4.229320526123047 3.930017948150635 C 4.264647006988525 3.976467132568359 4.41403865814209 4.182523250579834 4.485805034637451 4.43584156036377 C 4.573765277862549 4.746311664581299 4.508995056152344 4.976481437683105 4.275805473327637 5.18217134475708 C 4.090955257415771 5.345211505889893 3.886795282363892 5.424471378326416 3.651675224304199 5.424471378326416 Z" stroke="none"/>
      <path d="M 0.7933542728424072 1.073095798492432 L 0.08380222320556641 1.632339477539062 L 3.163310766220093 4.774885177612305 C 3.269190073013306 4.834315299987793 3.468775272369385 4.924471378326416 3.651675224304199 4.924471378326416 C 3.764125347137451 4.924471378326416 3.851865291595459 4.889391422271729 3.945055246353149 4.807191371917725 C 4.025905132293701 4.735881328582764 4.040265083312988 4.709041595458984 4.008665084838867 4.586631298065186 C 3.97338604927063 4.449965476989746 3.890921592712402 4.315784931182861 3.846359968185425 4.253090858459473 L 0.7933542728424072 1.073095798492432 M 0.8866252899169922 -0.2736783027648926 L 4.606555461883545 3.600981473922729 C 4.606555461883545 3.600981473922729 5.543585300445557 4.730631351470947 4.606555461883545 5.557141304016113 C 4.294230937957764 5.832624435424805 3.959328651428223 5.924474716186523 3.651673078536987 5.924474716186523 C 3.03630542755127 5.924474716186523 2.529775142669678 5.557141304016113 2.529775142669678 5.557141304016113 L -1.410154819488525 1.536561489105225 L 0.8866252899169922 -0.2736783027648926 Z" stroke="none" fill="#fff"/>
    </g>
  </g>
</svg>
