<svg xmlns="http://www.w3.org/2000/svg" width="10" height="15" viewBox="0 0 10 15">
  <text id="_2." data-name="2." transform="translate(0 12)" fill="#404040" font-size="12" font-family="Lato-Bold, Lato" font-weight="700" opacity="0.5"><tspan x="0" y="0">2.</tspan></text>
</svg>
