<svg xmlns="http://www.w3.org/2000/svg" width="28.72" height="13.165" viewBox="0 0 28.72 13.165">
  <g id="iconmonstr-soundcloud-1" transform="translate(-413 -136.152)">
    <path id="iconmonstr-soundcloud-1-2" data-name="iconmonstr-soundcloud-1" d="M8.377,20.1H7.18V10.448a4.9,4.9,0,0,1,1.2-.677Zm3.59,0h1.2V9.064a6.672,6.672,0,0,0-.743,1.026l-.454-.22Zm-2.393,0h1.2V9.514a3.383,3.383,0,0,0-1.2-.012Zm-4.787,0h1.2V11.7a5.613,5.613,0,0,0-.828,1.837l-.369-.218ZM1.2,13.82a3.676,3.676,0,0,0,0,5.428Zm22.592-.8a6.33,6.33,0,0,0-6.123-6.078A5.8,5.8,0,0,0,14.36,7.988V20.1H25.236a3.608,3.608,0,0,0,3.483-3.717,3.5,3.5,0,0,0-4.931-3.369Zm-20.2-.032a2.613,2.613,0,0,0-1.2.146v6.808a3.128,3.128,0,0,0,1.2.165Z" transform="translate(413 129.213)" fill="#f73b00"/>
  </g>
</svg>
