<svg xmlns="http://www.w3.org/2000/svg" xmlns:xlink="http://www.w3.org/1999/xlink" width="10.918" height="11.756" viewBox="0 0 10.918 11.756">
  <defs>
    <clipPath id="clip-path">
      <rect id="Rechteck_9931" data-name="Rechteck 9931" width="10.918" height="11.756" rx="2" transform="translate(706 624)" fill="none" stroke="#fff" stroke-width="1" opacity="0.8"/>
    </clipPath>
  </defs>
  <g id="Gruppe_maskieren_3" data-name="Gruppe maskieren 3" transform="translate(-706 -624)" clip-path="url(#clip-path)">
    <g id="text-width" transform="translate(707.204 624)">
      <g id="Gruppe_26" data-name="Gruppe 26" transform="translate(0 0)">
        <path id="Pfad_2220" data-name="Pfad 2220" d="M8.379,16.921l-.9-.966q-.144-.153-.246-.084t-.1.322v.614H1.459v-.614q0-.253-.1-.322t-.247.084l-.9.966a.562.562,0,0,0,0,.752l.9.966q.144.153.247.084t.1-.322v-.614H7.132V18.4q0,.253.1.322t.246-.084l.9-.966a.562.562,0,0,0,0-.752Z" transform="translate(-0.041 -6.989)" fill="#fff"/>
        <path id="Pfad_2221" data-name="Pfad 2221" d="M8.5,1.84Q8.5.831,8.5.831V.03A1.452,1.452,0,0,0,8.343.022L8.111.03,8.072.091a.509.509,0,0,1-.116.123A.214.214,0,0,1,7.8.267L7.612.252H5.85L3.38.244,2.742.252,2.637.275h-.72A8.267,8.267,0,0,1,.748.236L.449.029,0,.038V2.975a1.3,1.3,0,0,0,.31.337q.039,0,.114-.1a.642.642,0,0,0,.108-.245q.061-.253.133-.644t.122-.575A.557.557,0,0,1,.908,1.5a2.231,2.231,0,0,1,.734-.184A6.679,6.679,0,0,1,2.576,1.2a4.658,4.658,0,0,1,.82.046.131.131,0,0,1,.078.046.273.273,0,0,1,.033.115q.011.1.011,2.132l.028.337q0,2.27-.033,3.321a1.894,1.894,0,0,1-.066.429,5.033,5.033,0,0,1-.881.383.742.742,0,0,0-.438.376v.069l.006.2q0,.031.011.2a2.739,2.739,0,0,0,.388-.038,11.721,11.721,0,0,1,1.291-.1,9.8,9.8,0,0,1,1.319.061,5.966,5.966,0,0,0,1.036.077q.111,0,.188-.008a2.135,2.135,0,0,0,.017-.222q0-.038-.028-.384a1.248,1.248,0,0,0-.277-.138q-.083-.031-.238-.092t-.244-.1a.59.59,0,0,0-.1-.038A1.5,1.5,0,0,1,5,7.63a2.8,2.8,0,0,1-.061-.652l.005-1.127L4.931,3.1v.4L4.925,2.33q-.011-.3.044-1.043a4.149,4.149,0,0,1,.7-.038q.227,0,.709-.008t.767-.008a1.684,1.684,0,0,1,.324.015.342.342,0,0,1,.15.146,1.2,1.2,0,0,1,.033.222q.022.207.064.5t.086.479a7.1,7.1,0,0,0,.3.982,1.19,1.19,0,0,0,.377-.138A2.732,2.732,0,0,0,8.5,3.051l.005-.445Z" transform="translate(0 -0.022)" fill="#fff"/>
      </g>
    </g>
  </g>
</svg>
