<svg xmlns="http://www.w3.org/2000/svg" xmlns:xlink="http://www.w3.org/1999/xlink" width="15.381" height="11.464" viewBox="0 0 15.381 11.464">
  <defs>
    <clipPath id="clip-path">
      <rect id="Rechteck_9930" data-name="Rechteck 9930" width="15.381" height="11.464" rx="2" transform="translate(665 624)" fill="none" stroke="#fff" stroke-width="1" opacity="0.8"/>
    </clipPath>
  </defs>
  <g id="Gruppe_maskieren_2" data-name="Gruppe maskieren 2" transform="translate(-665 -624)" clip-path="url(#clip-path)">
    <g id="text-height" transform="translate(665.854 624)">
      <path id="Pfad_2219" data-name="Pfad 2219" d="M11.963,10.507h1.709l-2.136,2.457L9.4,10.507h1.709V3.957H9.4L11.536,1.5l2.136,2.457H11.963ZM8.545,1.5V4.775L7.69,3.138H5.127v9.007H6.836v.819H1.709v-.819H3.418V3.138H.854L0,4.775V1.5Z" transform="translate(0 -1.5)" fill="#fff"/>
    </g>
  </g>
</svg>
