<svg xmlns="http://www.w3.org/2000/svg" width="9.329" height="12.517" viewBox="0 0 9.329 12.517">
  <g id="rubbish-bin" transform="translate(-358 -129)">
    <g id="Gruppe_32" data-name="Gruppe 32" transform="translate(358 129)">
      <path id="Pfad_2244" data-name="Pfad 2244" d="M74.463,108.333a.63.63,0,0,0,.629.6h5.88a.63.63,0,0,0,.629-.6l.42-8.865H74.043Zm4.9-6.663a.256.256,0,0,1,.256-.256h.409a.256.256,0,0,1,.256.256v5.065a.256.256,0,0,1-.256.256h-.409a.256.256,0,0,1-.256-.256Zm-1.791,0a.256.256,0,0,1,.256-.256h.409a.256.256,0,0,1,.256.256v5.065a.256.256,0,0,1-.256.256h-.409a.256.256,0,0,1-.256-.256V101.67Zm-1.791,0a.256.256,0,0,1,.256-.256h.409a.256.256,0,0,1,.256.256v5.065a.256.256,0,0,1-.256.256h-.409a.256.256,0,0,1-.256-.256Z" transform="translate(-73.368 -96.42)" fill="#707070"/>
      <path id="Pfad_2245" data-name="Pfad 2245" d="M60.95.645H58.237V.132A.132.132,0,0,0,58.1,0H55.256a.132.132,0,0,0-.132.132V.645H52.411a.4.4,0,0,0-.4.4V2.282h9.329V1.04A.4.4,0,0,0,60.95.645Z" transform="translate(-52.016)" fill="#707070"/>
    </g>
  </g>
</svg>
