<svg xmlns="http://www.w3.org/2000/svg" width="20.899" height="20.095" viewBox="0 0 20.899 20.095">
  <g id="upload" transform="translate(0 -9.136)">
    <g id="Gruppe_753" data-name="Gruppe 753" transform="translate(0 9.136)">
      <path id="Pfad_3261" data-name="Pfad 3261" d="M20.547,320.125a1.162,1.162,0,0,0-.854-.352H14.331a2.479,2.479,0,0,1-.885,1.155,2.3,2.3,0,0,1-1.388.452H8.842a2.3,2.3,0,0,1-1.388-.452,2.479,2.479,0,0,1-.885-1.155H1.206a1.163,1.163,0,0,0-.854.352,1.162,1.162,0,0,0-.352.854V325a1.162,1.162,0,0,0,.352.854,1.163,1.163,0,0,0,.854.352H19.694A1.2,1.2,0,0,0,20.9,325v-4.019A1.162,1.162,0,0,0,20.547,320.125Zm-4.71,4.232a.789.789,0,1,1,.238-.565A.774.774,0,0,1,15.838,324.357Zm3.215,0a.788.788,0,1,1,.239-.565A.772.772,0,0,1,19.053,324.357Z" transform="translate(0 -306.108)"/>
      <path id="Pfad_3262" data-name="Pfad 3262" d="M91.886,16.371H95.1V22a.815.815,0,0,0,.8.8H99.12a.815.815,0,0,0,.8-.8V16.371h3.215a.751.751,0,0,0,.741-.5A.714.714,0,0,0,103.7,15L98.077,9.375a.788.788,0,0,0-1.13,0L91.32,15a.714.714,0,0,0-.176.867A.751.751,0,0,0,91.886,16.371Z" transform="translate(-87.063 -9.136)"/>
    </g>
  </g>
</svg>
