<svg xmlns="http://www.w3.org/2000/svg" width="19.906" height="19.776" viewBox="0 0 19.906 19.776">
  <g id="Symbol_3_1" data-name="Symbol 3 – 1" transform="translate(-132.785 -728.77)">
    <ellipse id="Ellipse_2558" data-name="Ellipse 2558" cx="9.953" cy="9.888" rx="9.953" ry="9.888" transform="translate(132.785 728.77)" fill="#fff"/>
    <path id="Pfad_2105" data-name="Pfad 2105" d="M.155.133A1.36,1.36,0,0,1,.637-.1a37.569,37.569,0,0,1,5.441-.57,26.756,26.756,0,0,1,5.195.58c.237.047.288.139.444.346s.089-.044.182.482a23.643,23.643,0,0,1,.365,3.785,18.519,18.519,0,0,1-.355,3.412c-.06.326-.03.325-.192.512s-.058.159-.455.234a30.3,30.3,0,0,1-5.185.495,51.09,51.09,0,0,1-5.42-.485A1.172,1.172,0,0,1,.114,8.5a1.054,1.054,0,0,1-.3-.469A12.869,12.869,0,0,1-.854,4.525,20.509,20.509,0,0,1-.145.553,1.213,1.213,0,0,1,.155.133Z" transform="translate(136.888 734.271)" fill="#131416"/>
    <path id="Pfad_2106" data-name="Pfad 2106" d="M0,0,4.36,1.822,0,3.721Z" transform="translate(140.748 736.68)" fill="#fff"/>
  </g>
</svg>
