<svg id="btn--face__rounded" xmlns="http://www.w3.org/2000/svg" width="26" height="26" viewBox="0 0 26 26">
  <circle id="Ellipse_1" data-name="Ellipse 1" cx="13" cy="13" r="13" fill="#2a353a"/>
  <path id="Facebook" d="M116.171,2.832V4.845H114.7V7.306h1.475V14.62H119.2V7.307h2.033s.19-1.18.283-2.471h-2.3V3.153a.715.715,0,0,1,.657-.59h1.65V0h-2.244C116.1,0,116.171,2.465,116.171,2.832Z" transform="translate(-105.13 5.133)" fill="#fff"/>
</svg>
