<?xml version="1.0" encoding="UTF-8"?>
<svg width="554px" height="131px" viewBox="0 0 554 131" version="1.1" xmlns="http://www.w3.org/2000/svg" xmlns:xlink="http://www.w3.org/1999/xlink">
    <!-- Generator: Sketch 61.2 (89653) - https://sketch.com -->
    <title>request_white 2</title>
    <desc>Created with Sketch.</desc>
    <g id="Page-1" stroke="none" stroke-width="1" fill="none" fill-rule="evenodd">
        <g id="request_white-2" fill="#000000" fill-rule="nonzero">
            <g id="request_white">
                <path d="M529,0 C542.807119,0 554,11.1928813 554,25 L554,106 C554,119.807119 542.807119,131 529,131 L25,131 C11.1928813,131 0,119.807119 0,106 L0,25 C0,11.1928813 11.1928813,0 25,0 L529,0 Z M342.364258,43.7744141 C336.416992,43.7744141 336.416992,43.7744141 332.423828,45.8417969 C327.18457,48.5322266 327.18457,48.5322266 324.46582,53.5732422 C321.74707,58.6142578 321.74707,58.6142578 321.74707,65.0996094 C321.74707,71.0751953 321.74707,71.0751953 324.182617,76.1586914 C326.618164,81.2421875 326.618164,81.2421875 331.460938,83.9750977 C336.303711,86.7080078 336.303711,86.7080078 342.817383,86.7080078 C347.943359,86.7080078 347.943359,86.7080078 352.941895,84.7680664 C357.677349,82.9302272 357.677349,82.9302272 360.290427,80.5459079 L360.574219,80.2792969 L360.574219,63.7402344 L342.505859,63.7402344 L342.505859,70.7353516 L352.106445,70.7353516 L352.106445,76.0029297 C350.208984,77.4755859 350.208984,77.4755859 347.561035,78.5092773 C344.913086,79.5429688 344.913086,79.5429688 342.279297,79.5429688 C336.955078,79.5429688 336.955078,79.5429688 333.669922,75.847168 C330.384766,72.1513672 330.384766,72.1513672 330.384766,64.7597656 C330.384766,57.90625 330.384766,57.90625 333.627441,54.4228516 C336.870117,50.9394531 336.870117,50.9394531 342.364258,50.9394531 C345.989258,50.9394531 345.989258,50.9394531 348.410645,52.7094727 C350.689597,54.3753734 350.689597,54.3753734 351.601334,57.1827101 L351.709961,57.5380859 L360.036133,55.9804688 C358.790039,50.2597656 358.790039,50.2597656 354.442871,47.0170898 C350.095703,43.7744141 350.095703,43.7744141 342.364258,43.7744141 Z M122.035156,44.4824219 L113.170898,44.4824219 L97,86 L105.892578,86 L109.319336,76.5693359 L125.915039,76.5693359 L129.540039,86 L138.65918,86 L122.035156,44.4824219 Z M155.14668,44.4824219 L146.99043,44.4824219 L146.99043,86 L154.778516,86 L154.778516,58.9257812 L171.51582,86 L179.926953,86 L179.926953,44.4824219 L172.138867,44.4824219 L172.138867,72.2080078 L155.14668,44.4824219 Z M221.109766,44.4824219 L192.647852,44.4824219 L192.647852,86 L201.030664,86 L201.030664,68.3564453 L218.362695,68.3564453 L218.362695,61.3330078 L201.030664,61.3330078 L201.030664,51.5058594 L221.109766,51.5058594 L221.109766,44.4824219 Z M249.491797,44.4824219 L231.848242,44.4824219 L231.848242,86 L240.231055,86 L240.231055,68.6679688 L241.930273,68.6679688 C244.818945,68.6679688 244.818945,68.6679688 246.15,69.1352539 C247.481055,69.6025391 247.481055,69.6025391 248.670508,70.862793 C249.81748,72.0780378 249.81748,72.0780378 252.860469,76.6244775 L253.088477,76.9658203 L259.149023,86 L269.174414,86 L264.105078,77.9003906 C261.103125,73.0576172 261.103125,73.0576172 259.333105,71.1601562 C257.563086,69.2626953 257.563086,69.2626953 254.844336,67.6767578 C260.310156,66.8837891 260.310156,66.8837891 263.057227,63.8393555 C265.804297,60.7949219 265.804297,60.7949219 265.804297,56.1220703 C265.804297,52.4404297 265.804297,52.4404297 263.991797,49.5800781 C262.179297,46.7197266 262.179297,46.7197266 259.163184,45.6010742 C256.263075,44.525447 256.263075,44.525447 249.998358,44.4840767 L249.491797,44.4824219 Z M298.321094,44.4824219 L289.456836,44.4824219 L273.285937,86 L282.178516,86 L285.605273,76.5693359 L302.200977,76.5693359 L305.825977,86 L314.945117,86 L298.321094,44.4824219 Z M402.889844,44.4824219 L372.105664,44.4824219 L372.105664,86 L403.682813,86 L403.682813,79.0048828 L380.488477,79.0048828 L380.488477,67.7050781 L401.332227,67.7050781 L401.332227,60.7099609 L380.488477,60.7099609 L380.488477,51.5058594 L402.889844,51.5058594 L402.889844,44.4824219 Z M422.832422,44.4824219 L414.676172,44.4824219 L414.676172,86 L422.464258,86 L422.464258,58.9257812 L439.201563,86 L447.612695,86 L447.612695,44.4824219 L439.824609,44.4824219 L439.824609,72.2080078 L422.832422,44.4824219 Z M117.503906,54.1679688 L123.224609,69.5742188 L111.896484,69.5742188 L117.503906,54.1679688 Z M293.789844,54.1679688 L299.510547,69.5742188 L288.182422,69.5742188 L293.789844,54.1679688 Z M246.773047,51.5058594 C251.870703,51.5058594 251.870703,51.5058594 252.890234,51.6474609 C254.929297,51.9873047 254.929297,51.9873047 256.047949,53.2758789 C257.166602,54.5644531 257.166602,54.5644531 257.166602,56.6601562 C257.166602,58.5292969 257.166602,58.5292969 256.316992,59.7753906 C255.467383,61.0214844 255.467383,61.0214844 253.966406,61.53125 C252.46543,62.0410156 252.46543,62.0410156 246.433203,62.0410156 L240.231055,62.0410156 L240.231055,51.5058594 L246.773047,51.5058594 Z" id="Combined-Shape"></path>
            </g>
        </g>
    </g>
</svg>