<svg id="btn-twi__rounded" xmlns="http://www.w3.org/2000/svg" width="26" height="26" viewBox="0 0 26 26">
  <circle id="Ellipse_2" data-name="Ellipse 2" cx="13" cy="13" r="13" fill="#20282c"/>
  <path id="twitter" d="M14.582,58.842a5.974,5.974,0,0,1-1.717.471,3,3,0,0,0,1.315-1.654,6.03,6.03,0,0,1-1.9.726,2.993,2.993,0,0,0-5.1,2.727,8.492,8.492,0,0,1-6.165-3.125,2.995,2.995,0,0,0,.926,3.993A2.991,2.991,0,0,1,.588,61.6v.037a2.994,2.994,0,0,0,2.4,2.933,3.03,3.03,0,0,1-.788.1,2.872,2.872,0,0,1-.563-.056A2.993,2.993,0,0,0,4.429,66.7,6,6,0,0,1,.714,67.98,6.355,6.355,0,0,1,0,67.939a8.455,8.455,0,0,0,4.585,1.346,8.451,8.451,0,0,0,8.51-8.51l-.01-.387A5.973,5.973,0,0,0,14.582,58.842Z" transform="translate(5.998 -50.441)" fill="#fff"/>
</svg>
