<svg id="btn--yt__rounded" xmlns="http://www.w3.org/2000/svg" width="26" height="26" viewBox="0 0 26 26">
  <circle id="Ellipse_7" data-name="Ellipse 7" cx="13" cy="13" r="13" fill="#fff"/>
  <path id="YouTube" d="M18.064,10.963h-.822l0-.478a.388.388,0,0,1,.387-.386h.052a.388.388,0,0,1,.388.386ZM14.979,9.939a.352.352,0,0,0-.379.312v2.324a.387.387,0,0,0,.76,0V10.251A.352.352,0,0,0,14.979,9.939Zm5.01-1.3v4.42a1.994,1.994,0,0,1-2.043,1.928h-8.4A1.994,1.994,0,0,1,7.5,13.06V8.639A1.994,1.994,0,0,1,9.543,6.711h8.4A1.994,1.994,0,0,1,19.99,8.639Zm-9.886,4.9V8.883h1.042v-.69l-2.777,0v.678l.867,0v4.669Zm3.122-3.963h-.868v2.486a4.406,4.406,0,0,1,0,.6c-.071.193-.388.4-.512.021a4.948,4.948,0,0,1,0-.607l0-2.5h-.864l0,2.464c0,.378-.008.659,0,.788.021.226.014.489.223.64a1.049,1.049,0,0,0,1.327-.444l0,.513h.7V9.577ZM16,12.424l0-2.069c0-.789-.591-1.261-1.391-.623l0-1.539h-.867l0,5.311.713-.01.065-.331C15.433,14,16.006,13.427,16,12.424Zm2.718-.274-.651,0c0,.026,0,.056,0,.088V12.6a.356.356,0,0,1-.356.353h-.128a.356.356,0,0,1-.356-.353v-.956h1.491v-.561a8.854,8.854,0,0,0-.044-1.055c-.107-.742-1.148-.859-1.674-.48a.98.98,0,0,0-.364.49,2.761,2.761,0,0,0-.111.875v1.234C16.528,14.2,19.02,13.914,18.722,12.15Zm-3.34-6.7a.591.591,0,0,0,.209.264.6.6,0,0,0,.355.1.553.553,0,0,0,.333-.1.8.8,0,0,0,.244-.312l-.016.341h.968V1.622h-.762v3.2a.317.317,0,0,1-.635,0v-3.2h-.8V4.4c0,.354.006.59.017.709A1.194,1.194,0,0,0,15.382,5.451ZM12.449,3.126a3.426,3.426,0,0,1,.1-.926.991.991,0,0,1,1.012-.737,1.2,1.2,0,0,1,.576.13.96.96,0,0,1,.371.338,1.332,1.332,0,0,1,.179.429,3.419,3.419,0,0,1,.048.674V4.074a5.636,5.636,0,0,1-.045.841,1.333,1.333,0,0,1-.191.5.9.9,0,0,1-.373.342,1.189,1.189,0,0,1-.525.11,1.459,1.459,0,0,1-.56-.094.768.768,0,0,1-.357-.285,1.267,1.267,0,0,1-.182-.462,4.448,4.448,0,0,1-.054-.812V3.126Zm.758,1.635a.386.386,0,1,0,.769,0V2.57a.386.386,0,1,0-.769,0ZM10.528,5.868h.913V2.71l1.079-2.7h-1l-.574,2.009L10.367,0H9.378l1.148,2.712Z" transform="translate(-0.849 5.225)" fill="#141719"/>
</svg>
